<svg width="1747" height="1535" viewBox="0 0 1747 1535" fill="none" xmlns="http://www.w3.org/2000/svg">
<rect width="1747" height="1535" fill="#090808" fill-opacity="0.1"/>
<rect width="1317" height="800" transform="translate(0 735)" fill="#F26060"/>
<path d="M332.66 781.92H336.78C337.5 781.92 338.167 781.987 338.78 782.12C339.407 782.253 339.947 782.48 340.4 782.8C340.853 783.12 341.207 783.54 341.46 784.06C341.713 784.567 341.84 785.2 341.84 785.96C341.84 786.68 341.713 787.307 341.46 787.84C341.207 788.373 340.853 788.82 340.4 789.18C339.96 789.527 339.433 789.787 338.82 789.96C338.22 790.12 337.567 790.2 336.86 790.2H334.98V795H332.66V781.92ZM336.68 788.34C338.6 788.34 339.56 787.547 339.56 785.96C339.56 785.133 339.307 784.567 338.8 784.26C338.307 783.94 337.573 783.78 336.6 783.78H334.98V788.34H336.68ZM348.621 788.04H350.481C351.374 788.04 352.054 787.853 352.521 787.48C353.001 787.107 353.241 786.547 353.241 785.8C353.241 785.04 353.001 784.513 352.521 784.22C352.054 783.927 351.374 783.78 350.481 783.78H348.621V788.04ZM353.441 795L350.621 789.88H348.621V795H346.301V781.92H350.721C351.401 781.92 352.034 781.987 352.621 782.12C353.207 782.253 353.714 782.473 354.141 782.78C354.567 783.073 354.901 783.467 355.141 783.96C355.394 784.453 355.521 785.067 355.521 785.8C355.521 786.8 355.281 787.607 354.801 788.22C354.334 788.833 353.707 789.273 352.921 789.54L356.041 795H353.441ZM365.217 795.24C364.363 795.24 363.583 795.087 362.877 794.78C362.17 794.46 361.563 794.007 361.057 793.42C360.55 792.82 360.157 792.1 359.877 791.26C359.597 790.42 359.457 789.467 359.457 788.4C359.457 787.347 359.597 786.407 359.877 785.58C360.157 784.74 360.55 784.033 361.057 783.46C361.563 782.887 362.17 782.447 362.877 782.14C363.583 781.833 364.363 781.68 365.217 781.68C366.07 781.68 366.85 781.833 367.557 782.14C368.263 782.447 368.87 782.887 369.377 783.46C369.897 784.033 370.297 784.74 370.577 785.58C370.857 786.407 370.997 787.347 370.997 788.4C370.997 789.467 370.857 790.42 370.577 791.26C370.297 792.1 369.897 792.82 369.377 793.42C368.87 794.007 368.263 794.46 367.557 794.78C366.85 795.087 366.07 795.24 365.217 795.24ZM365.217 793.22C365.737 793.22 366.203 793.107 366.617 792.88C367.03 792.653 367.383 792.333 367.677 791.92C367.97 791.493 368.197 790.987 368.357 790.4C368.517 789.8 368.597 789.133 368.597 788.4C368.597 786.933 368.29 785.787 367.677 784.96C367.077 784.12 366.257 783.7 365.217 783.7C364.177 783.7 363.35 784.12 362.737 784.96C362.137 785.787 361.837 786.933 361.837 788.4C361.837 789.133 361.917 789.8 362.077 790.4C362.237 790.987 362.463 791.493 362.757 791.92C363.05 792.333 363.403 792.653 363.817 792.88C364.23 793.107 364.697 793.22 365.217 793.22ZM377.396 795.24C376.476 795.24 375.696 795.053 375.056 794.68C374.429 794.307 373.909 793.753 373.496 793.02L375.096 791.84C375.362 792.32 375.669 792.673 376.016 792.9C376.362 793.113 376.736 793.22 377.136 793.22C377.749 793.22 378.209 793.033 378.516 792.66C378.822 792.287 378.976 791.633 378.976 790.7V781.92H381.296V790.9C381.296 791.5 381.222 792.067 381.076 792.6C380.929 793.12 380.696 793.58 380.376 793.98C380.056 794.367 379.649 794.673 379.156 794.9C378.662 795.127 378.076 795.24 377.396 795.24ZM386.558 781.92H394.438V783.88H388.878V787.22H393.578V789.18H388.878V793.04H394.638V795H386.558V781.92ZM404.54 795.24C403.713 795.24 402.94 795.093 402.22 794.8C401.5 794.507 400.873 794.073 400.34 793.5C399.82 792.927 399.407 792.22 399.1 791.38C398.793 790.54 398.64 789.58 398.64 788.5C398.64 787.433 398.793 786.48 399.1 785.64C399.42 784.787 399.847 784.067 400.38 783.48C400.927 782.893 401.56 782.447 402.28 782.14C403.013 781.833 403.793 781.68 404.62 781.68C405.447 781.68 406.18 781.847 406.82 782.18C407.46 782.513 407.987 782.9 408.4 783.34L407.16 784.84C406.813 784.493 406.44 784.22 406.04 784.02C405.64 783.807 405.187 783.7 404.68 783.7C404.147 783.7 403.653 783.813 403.2 784.04C402.76 784.253 402.373 784.567 402.04 784.98C401.72 785.38 401.467 785.873 401.28 786.46C401.107 787.047 401.02 787.707 401.02 788.44C401.02 789.933 401.34 791.107 401.98 791.96C402.633 792.8 403.513 793.22 404.62 793.22C405.207 793.22 405.727 793.1 406.18 792.86C406.633 792.607 407.047 792.28 407.42 791.88L408.66 793.34C408.127 793.953 407.513 794.427 406.82 794.76C406.14 795.08 405.38 795.24 404.54 795.24ZM415.191 783.88H411.411V781.92H421.291V783.88H417.511V795H415.191V783.88Z" fill="#F26060"/>
<path d="M524.26 797H525.422V793.36H526.934C528.95 793.36 530.322 792.45 530.322 790.518C530.322 788.502 528.936 787.816 526.878 787.816H524.26V797ZM525.422 792.408V788.754H526.738C528.348 788.754 529.16 789.188 529.16 790.518C529.16 791.82 528.39 792.408 526.794 792.408H525.422ZM536.152 788.754H537.692C539.12 788.754 539.918 789.188 539.918 790.392C539.918 791.582 539.12 792.17 537.692 792.17H536.152V788.754ZM541.346 797L539.022 792.996C540.268 792.688 541.08 791.82 541.08 790.392C541.08 788.488 539.736 787.816 537.86 787.816H534.99V797H536.152V793.122H537.818L540.03 797H541.346ZM549.148 797.168C551.458 797.168 553.082 795.32 553.082 792.366C553.082 789.44 551.458 787.648 549.148 787.648C546.838 787.648 545.228 789.426 545.228 792.366C545.228 795.32 546.838 797.168 549.148 797.168ZM549.148 796.146C547.51 796.146 546.432 794.662 546.432 792.366C546.432 790.084 547.51 788.67 549.148 788.67C550.786 788.67 551.864 790.084 551.864 792.366C551.864 794.662 550.786 796.146 549.148 796.146ZM559.005 797.168C560.797 797.168 561.539 795.88 561.539 794.298V787.816H560.363V794.186C560.363 795.586 559.873 796.146 558.893 796.146C558.235 796.146 557.717 795.838 557.311 795.11L556.471 795.698C557.003 796.664 557.843 797.168 559.005 797.168ZM566.823 797H572.255V796.006H567.985V792.674H571.471V791.68H567.985V788.796H572.115V787.816H566.823V797ZM580.478 797.168C581.668 797.168 582.564 796.678 583.292 795.838L582.648 795.11C582.06 795.754 581.402 796.146 580.52 796.146C578.784 796.146 577.678 794.69 577.678 792.38C577.678 790.098 578.826 788.67 580.562 788.67C581.346 788.67 581.948 789.02 582.438 789.538L583.068 788.782C582.536 788.18 581.668 787.648 580.548 787.648C578.21 787.648 576.474 789.454 576.474 792.408C576.474 795.404 578.182 797.168 580.478 797.168ZM589.462 797H590.638V788.796H593.41V787.816H586.69V788.796H589.462V797ZM599.865 797.168C601.797 797.168 602.987 796.006 602.987 794.55C602.987 793.192 602.161 792.562 601.097 792.1L599.795 791.54C599.067 791.232 598.269 790.896 598.269 790.014C598.269 789.188 598.955 788.67 599.977 788.67C600.831 788.67 601.503 789.006 602.063 789.538L602.693 788.782C602.035 788.11 601.069 787.648 599.977 787.648C598.311 787.648 597.093 788.684 597.093 790.084C597.093 791.428 598.087 792.086 598.955 792.45L600.271 793.024C601.139 793.416 601.797 793.71 601.797 794.648C601.797 795.544 601.083 796.146 599.879 796.146C598.927 796.146 598.003 795.684 597.345 794.998L596.645 795.81C597.443 796.636 598.577 797.168 599.865 797.168Z" fill="#F26060"/>
<path d="M749.808 797.168C751.74 797.168 752.93 796.006 752.93 794.55C752.93 793.192 752.104 792.562 751.04 792.1L749.738 791.54C749.01 791.232 748.212 790.896 748.212 790.014C748.212 789.188 748.898 788.67 749.92 788.67C750.774 788.67 751.446 789.006 752.006 789.538L752.636 788.782C751.978 788.11 751.012 787.648 749.92 787.648C748.254 787.648 747.036 788.684 747.036 790.084C747.036 791.428 748.03 792.086 748.898 792.45L750.214 793.024C751.082 793.416 751.74 793.71 751.74 794.648C751.74 795.544 751.026 796.146 749.822 796.146C748.87 796.146 747.946 795.684 747.288 794.998L746.588 795.81C747.386 796.636 748.52 797.168 749.808 797.168ZM759.169 797H760.345V788.796H763.117V787.816H756.397V788.796H759.169V797ZM770.617 797.168C772.927 797.168 774.551 795.32 774.551 792.366C774.551 789.44 772.927 787.648 770.617 787.648C768.307 787.648 766.697 789.426 766.697 792.366C766.697 795.32 768.307 797.168 770.617 797.168ZM770.617 796.146C768.979 796.146 767.901 794.662 767.901 792.366C767.901 790.084 768.979 788.67 770.617 788.67C772.255 788.67 773.333 790.084 773.333 792.366C773.333 794.662 772.255 796.146 770.617 796.146ZM780.488 788.754H782.028C783.456 788.754 784.254 789.188 784.254 790.392C784.254 791.582 783.456 792.17 782.028 792.17H780.488V788.754ZM785.682 797L783.358 792.996C784.604 792.688 785.416 791.82 785.416 790.392C785.416 788.488 784.072 787.816 782.196 787.816H779.326V797H780.488V793.122H782.154L784.366 797H785.682ZM790.097 797H791.259V787.816H790.097V797ZM796.574 797H802.006V796.006H797.736V792.674H801.222V791.68H797.736V788.796H801.866V787.816H796.574V797ZM809.305 797.168C811.237 797.168 812.427 796.006 812.427 794.55C812.427 793.192 811.601 792.562 810.537 792.1L809.235 791.54C808.507 791.232 807.709 790.896 807.709 790.014C807.709 789.188 808.395 788.67 809.417 788.67C810.271 788.67 810.943 789.006 811.503 789.538L812.133 788.782C811.475 788.11 810.509 787.648 809.417 787.648C807.751 787.648 806.533 788.684 806.533 790.084C806.533 791.428 807.527 792.086 808.395 792.45L809.711 793.024C810.579 793.416 811.237 793.71 811.237 794.648C811.237 795.544 810.523 796.146 809.319 796.146C808.367 796.146 807.443 795.684 806.785 794.998L806.085 795.81C806.883 796.636 808.017 797.168 809.305 797.168Z" fill="#F26060"/>
<path d="M849.732 797.168C850.922 797.168 851.818 796.678 852.546 795.838L851.902 795.11C851.314 795.754 850.656 796.146 849.774 796.146C848.038 796.146 846.932 794.69 846.932 792.38C846.932 790.098 848.08 788.67 849.816 788.67C850.6 788.67 851.202 789.02 851.692 789.538L852.322 788.782C851.79 788.18 850.922 787.648 849.802 787.648C847.464 787.648 845.728 789.454 845.728 792.408C845.728 795.404 847.436 797.168 849.732 797.168ZM860.036 797.168C862.346 797.168 863.97 795.32 863.97 792.366C863.97 789.44 862.346 787.648 860.036 787.648C857.726 787.648 856.116 789.426 856.116 792.366C856.116 795.32 857.726 797.168 860.036 797.168ZM860.036 796.146C858.398 796.146 857.32 794.662 857.32 792.366C857.32 790.084 858.398 788.67 860.036 788.67C861.674 788.67 862.752 790.084 862.752 792.366C862.752 794.662 861.674 796.146 860.036 796.146ZM868.745 797H869.851V792.198C869.851 791.232 869.767 790.252 869.697 789.328H869.753L870.747 791.218L874.079 797H875.283V787.816H874.177V792.562C874.177 793.528 874.261 794.564 874.317 795.488H874.261L873.267 793.584L869.949 787.816H868.745V797ZM882.513 797H883.689V788.796H886.461V787.816H879.741V788.796H882.513V797ZM891.503 793.262L891.937 791.862C892.273 790.84 892.567 789.832 892.847 788.768H892.903C893.197 789.832 893.491 790.84 893.827 791.862L894.261 793.262H891.503ZM895.423 797H896.669L893.561 787.816H892.245L889.137 797H890.327L891.209 794.2H894.555L895.423 797ZM904.105 797.168C905.295 797.168 906.191 796.678 906.919 795.838L906.275 795.11C905.687 795.754 905.029 796.146 904.147 796.146C902.411 796.146 901.305 794.69 901.305 792.38C901.305 790.098 902.453 788.67 904.189 788.67C904.973 788.67 905.575 789.02 906.065 789.538L906.695 788.782C906.163 788.18 905.295 787.648 904.175 787.648C901.837 787.648 900.101 789.454 900.101 792.408C900.101 795.404 901.809 797.168 904.105 797.168ZM913.089 797H914.265V788.796H917.037V787.816H910.317V788.796H913.089V797Z" fill="#F26060"/>
<path d="M703.842 791.862L703.408 793.262H706.166L705.732 791.862C705.564 791.349 705.405 790.84 705.256 790.336C705.107 789.823 704.957 789.3 704.808 788.768H704.752C704.612 789.3 704.467 789.823 704.318 790.336C704.169 790.84 704.01 791.349 703.842 791.862ZM701.042 797L704.15 787.816H705.466L708.574 797H707.328L706.46 794.2H703.114L702.232 797H701.042ZM712.675 797V787.816H715.405C715.872 787.816 716.297 787.858 716.679 787.942C717.071 788.026 717.403 788.157 717.673 788.334C717.953 788.511 718.168 788.745 718.317 789.034C718.476 789.314 718.555 789.655 718.555 790.056C718.555 790.513 718.439 790.929 718.205 791.302C717.981 791.666 717.65 791.918 717.211 792.058V792.114C717.771 792.217 718.224 792.45 718.569 792.814C718.915 793.178 719.087 793.677 719.087 794.312C719.087 794.76 719.003 795.152 718.835 795.488C718.667 795.824 718.429 796.104 718.121 796.328C717.813 796.552 717.445 796.72 717.015 796.832C716.586 796.944 716.115 797 715.601 797H712.675ZM713.837 791.722H715.195C715.979 791.722 716.544 791.587 716.889 791.316C717.235 791.045 717.407 790.677 717.407 790.21C717.407 789.678 717.225 789.3 716.861 789.076C716.507 788.852 715.97 788.74 715.251 788.74H713.837V791.722ZM713.837 796.076H715.433C716.227 796.076 716.843 795.931 717.281 795.642C717.72 795.343 717.939 794.886 717.939 794.27C717.939 793.701 717.725 793.285 717.295 793.024C716.866 792.753 716.245 792.618 715.433 792.618H713.837V796.076ZM727.094 797.168C726.515 797.168 725.983 797.056 725.498 796.832C725.022 796.608 724.611 796.291 724.266 795.88C723.92 795.46 723.65 794.956 723.454 794.368C723.267 793.771 723.174 793.103 723.174 792.366C723.174 791.629 723.267 790.971 723.454 790.392C723.65 789.804 723.92 789.309 724.266 788.908C724.611 788.497 725.022 788.185 725.498 787.97C725.983 787.755 726.515 787.648 727.094 787.648C727.672 787.648 728.2 787.76 728.676 787.984C729.161 788.199 729.576 788.511 729.922 788.922C730.276 789.323 730.547 789.818 730.734 790.406C730.93 790.985 731.028 791.638 731.028 792.366C731.028 793.103 730.93 793.771 730.734 794.368C730.547 794.956 730.276 795.46 729.922 795.88C729.576 796.291 729.161 796.608 728.676 796.832C728.2 797.056 727.672 797.168 727.094 797.168ZM727.094 796.146C727.504 796.146 727.873 796.057 728.2 795.88C728.536 795.703 728.82 795.451 729.054 795.124C729.296 794.788 729.483 794.391 729.614 793.934C729.744 793.467 729.81 792.945 729.81 792.366C729.81 791.797 729.744 791.283 729.614 790.826C729.483 790.369 729.296 789.981 729.054 789.664C728.82 789.347 728.536 789.104 728.2 788.936C727.873 788.759 727.504 788.67 727.094 788.67C726.683 788.67 726.31 788.759 725.974 788.936C725.647 789.104 725.362 789.347 725.12 789.664C724.886 789.981 724.704 790.369 724.574 790.826C724.443 791.283 724.378 791.797 724.378 792.366C724.378 792.945 724.443 793.467 724.574 793.934C724.704 794.391 724.886 794.788 725.12 795.124C725.362 795.451 725.647 795.703 725.974 795.88C726.31 796.057 726.683 796.146 727.094 796.146ZM739.065 797.168C738.598 797.168 738.159 797.103 737.749 796.972C737.347 796.832 736.997 796.608 736.699 796.3C736.409 795.983 736.181 795.572 736.013 795.068C735.845 794.564 735.761 793.943 735.761 793.206V787.816H736.923V793.234C736.923 793.785 736.979 794.247 737.091 794.62C737.203 794.993 737.352 795.292 737.539 795.516C737.735 795.74 737.963 795.903 738.225 796.006C738.486 796.099 738.766 796.146 739.065 796.146C739.373 796.146 739.657 796.099 739.919 796.006C740.18 795.903 740.409 795.74 740.605 795.516C740.801 795.292 740.955 794.993 741.067 794.62C741.179 794.247 741.235 793.785 741.235 793.234V787.816H742.355V793.206C742.355 793.943 742.271 794.564 742.103 795.068C741.935 795.572 741.701 795.983 741.403 796.3C741.113 796.608 740.768 796.832 740.367 796.972C739.965 797.103 739.531 797.168 739.065 797.168ZM749.53 797V788.796H746.758V787.816H753.478V788.796H750.706V797H749.53ZM766.797 797.168C766.33 797.168 765.891 797.103 765.481 796.972C765.079 796.832 764.729 796.608 764.431 796.3C764.141 795.983 763.913 795.572 763.745 795.068C763.577 794.564 763.493 793.943 763.493 793.206V787.816H764.655V793.234C764.655 793.785 764.711 794.247 764.823 794.62C764.935 794.993 765.084 795.292 765.271 795.516C765.467 795.74 765.695 795.903 765.957 796.006C766.218 796.099 766.498 796.146 766.797 796.146C767.105 796.146 767.389 796.099 767.651 796.006C767.912 795.903 768.141 795.74 768.337 795.516C768.533 795.292 768.687 794.993 768.799 794.62C768.911 794.247 768.967 793.785 768.967 793.234V787.816H770.087V793.206C770.087 793.943 770.003 794.564 769.835 795.068C769.667 795.572 769.433 795.983 769.135 796.3C768.845 796.608 768.5 796.832 768.099 796.972C767.697 797.103 767.263 797.168 766.797 797.168ZM777.769 797.168C777.125 797.168 776.528 797.047 775.977 796.804C775.427 796.561 774.951 796.23 774.549 795.81L775.249 794.998C775.576 795.343 775.959 795.623 776.397 795.838C776.845 796.043 777.307 796.146 777.783 796.146C778.39 796.146 778.861 796.011 779.197 795.74C779.533 795.46 779.701 795.096 779.701 794.648C779.701 794.415 779.659 794.219 779.575 794.06C779.501 793.892 779.393 793.752 779.253 793.64C779.123 793.519 778.964 793.411 778.777 793.318C778.591 793.225 778.39 793.127 778.175 793.024L776.859 792.45C776.645 792.357 776.425 792.245 776.201 792.114C775.977 791.983 775.777 791.825 775.599 791.638C775.422 791.451 775.277 791.232 775.165 790.98C775.053 790.719 774.997 790.42 774.997 790.084C774.997 789.739 775.067 789.417 775.207 789.118C775.357 788.819 775.557 788.563 775.809 788.348C776.071 788.124 776.374 787.951 776.719 787.83C777.074 787.709 777.461 787.648 777.881 787.648C778.432 787.648 778.941 787.755 779.407 787.97C779.874 788.175 780.271 788.446 780.597 788.782L779.967 789.538C779.687 789.267 779.375 789.057 779.029 788.908C778.693 788.749 778.311 788.67 777.881 788.67C777.368 788.67 776.953 788.791 776.635 789.034C776.327 789.267 776.173 789.594 776.173 790.014C776.173 790.238 776.215 790.429 776.299 790.588C776.393 790.737 776.514 790.873 776.663 790.994C776.813 791.106 776.976 791.209 777.153 791.302C777.331 791.386 777.513 791.465 777.699 791.54L779.001 792.1C779.263 792.212 779.51 792.343 779.743 792.492C779.977 792.632 780.177 792.8 780.345 792.996C780.513 793.183 780.644 793.407 780.737 793.668C780.84 793.92 780.891 794.214 780.891 794.55C780.891 794.914 780.817 795.255 780.667 795.572C780.527 795.889 780.322 796.169 780.051 796.412C779.781 796.645 779.454 796.832 779.071 796.972C778.689 797.103 778.255 797.168 777.769 797.168Z" fill="#F26060"/>
<line x1="701" y1="805" x2="781" y2="805" stroke="#F26060" stroke-width="2"/>
<path d="M586.463 1101.11L579.071 1078.12H587.183L590.879 1090.41L594.191 1078.12H601.967L594.719 1101.11V1117H586.463V1101.11Z" fill="#F26060"/>
<path d="M613.271 1117.48C610.231 1117.48 607.847 1116.71 606.119 1115.18C604.423 1113.64 603.575 1111.38 603.575 1108.41V1097.85C603.575 1094.87 604.423 1092.62 606.119 1091.08C607.847 1089.54 610.231 1088.78 613.271 1088.78C616.311 1088.78 618.695 1089.56 620.423 1091.13C622.151 1092.66 623.015 1094.9 623.015 1097.85V1108.41C623.015 1111.35 622.151 1113.61 620.423 1115.18C618.695 1116.71 616.311 1117.48 613.271 1117.48ZM613.319 1112.3C614.055 1112.3 614.567 1112.02 614.855 1111.48C615.143 1110.9 615.287 1110.06 615.287 1108.94V1097.32C615.287 1096.2 615.143 1095.37 614.855 1094.82C614.567 1094.25 614.055 1093.96 613.319 1093.96C612.583 1093.96 612.055 1094.25 611.735 1094.82C611.447 1095.4 611.303 1096.23 611.303 1097.32V1108.94C611.303 1110.06 611.447 1110.9 611.735 1111.48C612.055 1112.02 612.583 1112.3 613.319 1112.3Z" fill="#F26060"/>
<path d="M632.25 1117.48C630.586 1117.48 629.306 1116.89 628.41 1115.7C627.514 1114.49 627.066 1112.92 627.066 1111V1089.26H634.89V1110.09C634.89 1110.79 635.018 1111.32 635.274 1111.67C635.53 1112.02 635.946 1112.2 636.522 1112.2C637.034 1112.2 637.802 1111.91 638.826 1111.34V1089.26H646.602V1117H638.826V1114.46C636.65 1116.47 634.458 1117.48 632.25 1117.48Z" fill="#F26060"/>
<path d="M651.638 1089.26H659.462V1093.86C660.422 1092.17 661.35 1090.92 662.246 1090.12C663.142 1089.32 664.198 1088.92 665.414 1088.92C665.862 1088.92 666.262 1088.97 666.614 1089.06V1096.84C665.654 1096.46 664.806 1096.26 664.07 1096.26C662.374 1096.26 660.838 1097.16 659.462 1098.95V1117H651.638V1089.26Z" fill="#F26060"/>
<path d="M682.774 1078.12H691.366V1093.86H697.366V1078.12H706.006V1117H697.366V1100.01H691.366V1117H682.774V1078.12Z" fill="#F26060"/>
<path d="M720.567 1117.48C717.527 1117.48 715.159 1116.68 713.463 1115.08C711.767 1113.45 710.919 1111.16 710.919 1108.22V1098.04C710.919 1095.1 711.767 1092.82 713.463 1091.22C715.159 1089.59 717.527 1088.78 720.567 1088.78C723.639 1088.78 725.943 1089.56 727.479 1091.13C729.015 1092.7 729.783 1095 729.783 1098.04V1103.61H718.647V1108.94C718.647 1110.92 719.287 1111.91 720.567 1111.91C721.911 1111.91 722.583 1111.02 722.583 1109.22V1106.3H729.783V1108.98C729.783 1111.77 728.967 1113.88 727.335 1115.32C725.735 1116.76 723.479 1117.48 720.567 1117.48ZM722.583 1099.96V1097.18C722.583 1096.15 722.391 1095.43 722.007 1095.02C721.655 1094.57 721.159 1094.34 720.519 1094.34C719.911 1094.34 719.447 1094.58 719.127 1095.06C718.807 1095.54 718.647 1096.39 718.647 1097.61V1099.96H722.583Z" fill="#F26060"/>
<path d="M739.754 1117.48C738.41 1117.48 737.242 1117.16 736.25 1116.52C735.29 1115.85 734.554 1115 734.042 1113.98C733.562 1112.92 733.322 1111.83 733.322 1110.71C733.322 1108.57 733.866 1106.81 734.954 1105.43C736.042 1104.06 737.338 1102.98 738.842 1102.22C740.378 1101.45 742.346 1100.65 744.746 1099.82V1097.03C744.746 1096.23 744.618 1095.62 744.362 1095.21C744.138 1094.79 743.722 1094.58 743.114 1094.58C742.506 1094.58 742.074 1094.78 741.818 1095.16C741.562 1095.54 741.418 1096.09 741.386 1096.79L741.194 1098.81L733.898 1098.52C734.026 1095.19 734.906 1092.74 736.538 1091.18C738.17 1089.58 740.602 1088.78 743.834 1088.78C746.554 1088.78 748.634 1089.54 750.074 1091.08C751.514 1092.58 752.234 1094.6 752.234 1097.13V1110.09C752.234 1112.9 752.394 1115.21 752.714 1117H745.706C745.418 1114.86 745.21 1113.54 745.082 1113.06C744.698 1114.34 744.058 1115.4 743.162 1116.23C742.266 1117.06 741.13 1117.48 739.754 1117.48ZM742.538 1112.2C743.338 1112.2 744.074 1111.74 744.746 1110.81V1103.22C743.306 1104.06 742.218 1104.94 741.482 1105.86C740.746 1106.76 740.378 1107.86 740.378 1109.18C740.378 1110.1 740.57 1110.84 740.954 1111.38C741.338 1111.93 741.866 1112.2 742.538 1112.2Z" fill="#F26060"/>
<path d="M762.87 1117.48C760.79 1117.48 759.19 1116.76 758.07 1115.32C756.982 1113.88 756.438 1111.75 756.438 1108.94V1097.46C756.438 1094.81 756.982 1092.7 758.07 1091.13C759.19 1089.56 760.79 1088.78 762.87 1088.78C764.822 1088.78 766.646 1089.51 768.342 1090.98V1078.12H776.166V1117H768.342V1114.84C766.518 1116.6 764.694 1117.48 762.87 1117.48ZM766.278 1112.49C766.886 1112.49 767.574 1112.25 768.342 1111.77V1094.25C767.574 1093.83 766.902 1093.62 766.326 1093.62C765.654 1093.62 765.142 1093.91 764.79 1094.49C764.47 1095.03 764.31 1095.75 764.31 1096.65V1109.42C764.31 1110.34 764.47 1111.1 764.79 1111.67C765.11 1112.22 765.606 1112.49 766.278 1112.49Z" fill="#F26060"/>
<path d="M781.346 1078.12H789.122V1117H781.346V1078.12Z" fill="#F26060"/>
<path d="M794.182 1079.13H802.054V1084.55H794.182V1079.13ZM794.23 1089.26H802.054V1117H794.23V1089.26Z" fill="#F26060"/>
<path d="M806.885 1089.26H814.709V1092.04C816.885 1089.86 819.109 1088.78 821.381 1088.78C823.045 1088.78 824.309 1089.38 825.173 1090.6C826.069 1091.78 826.517 1093.34 826.517 1095.26V1117H818.741V1096.36C818.741 1095.66 818.613 1095.14 818.357 1094.82C818.133 1094.47 817.733 1094.3 817.157 1094.3C816.517 1094.3 815.701 1094.63 814.709 1095.3V1117H806.885V1089.26Z" fill="#F26060"/>
<path d="M840.286 1117.48C837.246 1117.48 834.878 1116.68 833.182 1115.08C831.486 1113.45 830.638 1111.16 830.638 1108.22V1098.04C830.638 1095.1 831.486 1092.82 833.182 1091.22C834.878 1089.59 837.246 1088.78 840.286 1088.78C843.358 1088.78 845.662 1089.56 847.198 1091.13C848.734 1092.7 849.502 1095 849.502 1098.04V1103.61H838.366V1108.94C838.366 1110.92 839.006 1111.91 840.286 1111.91C841.63 1111.91 842.302 1111.02 842.302 1109.22V1106.3H849.502V1108.98C849.502 1111.77 848.686 1113.88 847.054 1115.32C845.454 1116.76 843.198 1117.48 840.286 1117.48ZM842.302 1099.96V1097.18C842.302 1096.15 842.11 1095.43 841.726 1095.02C841.374 1094.57 840.878 1094.34 840.238 1094.34C839.63 1094.34 839.166 1094.58 838.846 1095.06C838.526 1095.54 838.366 1096.39 838.366 1097.61V1099.96H842.302Z" fill="#F26060"/>
<path d="M671.641 1142.12H680.233V1157.86H686.233V1142.12H694.873V1181H686.233V1164.01H680.233V1181H671.641V1142.12Z" fill="#F26060"/>
<path d="M709.434 1181.48C706.394 1181.48 704.026 1180.68 702.33 1179.08C700.634 1177.45 699.786 1175.16 699.786 1172.22V1162.04C699.786 1159.1 700.634 1156.82 702.33 1155.22C704.026 1153.59 706.394 1152.78 709.434 1152.78C712.506 1152.78 714.81 1153.56 716.346 1155.13C717.882 1156.7 718.65 1159 718.65 1162.04V1167.61H707.514V1172.94C707.514 1174.92 708.154 1175.91 709.434 1175.91C710.778 1175.91 711.45 1175.02 711.45 1173.22V1170.3H718.65V1172.98C718.65 1175.77 717.834 1177.88 716.202 1179.32C714.602 1180.76 712.346 1181.48 709.434 1181.48ZM711.45 1163.96V1161.18C711.45 1160.15 711.258 1159.43 710.874 1159.02C710.522 1158.57 710.026 1158.34 709.386 1158.34C708.778 1158.34 708.314 1158.58 707.994 1159.06C707.674 1159.54 707.514 1160.39 707.514 1161.61V1163.96H711.45Z" fill="#F26060"/>
<path d="M723.005 1153.26H730.829V1157.86C731.789 1156.17 732.717 1154.92 733.613 1154.12C734.509 1153.32 735.565 1152.92 736.781 1152.92C737.229 1152.92 737.629 1152.97 737.981 1153.06V1160.84C737.021 1160.46 736.173 1160.26 735.437 1160.26C733.741 1160.26 732.205 1161.16 730.829 1162.95V1181H723.005V1153.26Z" fill="#F26060"/>
<path d="M750.356 1181.48C747.316 1181.48 744.948 1180.68 743.252 1179.08C741.556 1177.45 740.708 1175.16 740.708 1172.22V1162.04C740.708 1159.1 741.556 1156.82 743.252 1155.22C744.948 1153.59 747.316 1152.78 750.356 1152.78C753.428 1152.78 755.732 1153.56 757.268 1155.13C758.804 1156.7 759.572 1159 759.572 1162.04V1167.61H748.436V1172.94C748.436 1174.92 749.076 1175.91 750.356 1175.91C751.7 1175.91 752.372 1175.02 752.372 1173.22V1170.3H759.572V1172.98C759.572 1175.77 758.756 1177.88 757.124 1179.32C755.524 1180.76 753.268 1181.48 750.356 1181.48ZM752.372 1163.96V1161.18C752.372 1160.15 752.18 1159.43 751.796 1159.02C751.444 1158.57 750.948 1158.34 750.308 1158.34C749.7 1158.34 749.236 1158.58 748.916 1159.06C748.596 1159.54 748.436 1160.39 748.436 1161.61V1163.96H752.372Z" fill="#F26060"/>
<path d="M514.93 1248V1232.26H516.922V1246.3H523.81V1248H514.93Z" fill="black" fill-opacity="0.7"/>
<path d="M530.664 1248.29C529.944 1248.29 529.256 1248.15 528.6 1247.88C527.96 1247.61 527.392 1247.22 526.896 1246.7C526.4 1246.18 526 1245.54 525.696 1244.78C525.408 1244.02 525.264 1243.15 525.264 1242.19C525.264 1241.22 525.408 1240.35 525.696 1239.6C526 1238.83 526.4 1238.18 526.896 1237.66C527.392 1237.13 527.96 1236.73 528.6 1236.46C529.256 1236.18 529.944 1236.05 530.664 1236.05C531.384 1236.05 532.064 1236.18 532.704 1236.46C533.36 1236.73 533.936 1237.13 534.432 1237.66C534.928 1238.18 535.32 1238.83 535.608 1239.6C535.912 1240.35 536.064 1241.22 536.064 1242.19C536.064 1243.15 535.912 1244.02 535.608 1244.78C535.32 1245.54 534.928 1246.18 534.432 1246.7C533.936 1247.22 533.36 1247.61 532.704 1247.88C532.064 1248.15 531.384 1248.29 530.664 1248.29ZM530.664 1246.66C531.16 1246.66 531.616 1246.55 532.032 1246.34C532.448 1246.12 532.8 1245.82 533.088 1245.43C533.392 1245.03 533.624 1244.56 533.784 1244.02C533.944 1243.47 534.024 1242.86 534.024 1242.19C534.024 1241.52 533.944 1240.91 533.784 1240.37C533.624 1239.81 533.392 1239.33 533.088 1238.93C532.8 1238.53 532.448 1238.22 532.032 1238.02C531.616 1237.79 531.16 1237.68 530.664 1237.68C530.168 1237.68 529.712 1237.79 529.296 1238.02C528.88 1238.22 528.52 1238.53 528.216 1238.93C527.928 1239.33 527.704 1239.81 527.544 1240.37C527.384 1240.91 527.304 1241.52 527.304 1242.19C527.304 1242.86 527.384 1243.47 527.544 1244.02C527.704 1244.56 527.928 1245.03 528.216 1245.43C528.52 1245.82 528.88 1246.12 529.296 1246.34C529.712 1246.55 530.168 1246.66 530.664 1246.66Z" fill="black" fill-opacity="0.7"/>
<path d="M539.136 1248V1236.34H540.768L540.936 1238.45H541.008C541.408 1237.71 541.888 1237.13 542.448 1236.7C543.024 1236.26 543.648 1236.05 544.32 1236.05C544.784 1236.05 545.2 1236.13 545.568 1236.29L545.184 1238.02C544.992 1237.95 544.816 1237.9 544.656 1237.87C544.496 1237.84 544.296 1237.82 544.056 1237.82C543.56 1237.82 543.04 1238.02 542.496 1238.42C541.968 1238.82 541.504 1239.52 541.104 1240.51V1248H539.136Z" fill="black" fill-opacity="0.7"/>
<path d="M551.95 1248.29C551.166 1248.29 550.43 1248.15 549.742 1247.88C549.07 1247.59 548.478 1247.19 547.966 1246.68C547.47 1246.15 547.078 1245.51 546.79 1244.76C546.502 1244.01 546.358 1243.15 546.358 1242.19C546.358 1241.23 546.502 1240.38 546.79 1239.62C547.094 1238.86 547.486 1238.21 547.966 1237.68C548.462 1237.15 549.022 1236.75 549.646 1236.48C550.27 1236.19 550.918 1236.05 551.59 1236.05C552.326 1236.05 552.982 1236.18 553.558 1236.43C554.15 1236.69 554.638 1237.06 555.022 1237.54C555.422 1238.02 555.726 1238.59 555.934 1239.26C556.142 1239.94 556.246 1240.69 556.246 1241.52C556.246 1241.73 556.238 1241.94 556.222 1242.14C556.222 1242.34 556.206 1242.5 556.174 1242.65H548.302C548.382 1243.9 548.766 1244.89 549.454 1245.62C550.158 1246.34 551.07 1246.7 552.19 1246.7C552.75 1246.7 553.262 1246.62 553.726 1246.46C554.206 1246.29 554.662 1246.06 555.094 1245.79L555.79 1247.09C555.278 1247.41 554.71 1247.69 554.086 1247.93C553.462 1248.17 552.75 1248.29 551.95 1248.29ZM548.278 1241.23H554.518C554.518 1240.05 554.262 1239.15 553.75 1238.54C553.254 1237.92 552.55 1237.61 551.638 1237.61C551.222 1237.61 550.822 1237.69 550.438 1237.85C550.07 1238.01 549.734 1238.25 549.43 1238.57C549.126 1238.87 548.87 1239.25 548.662 1239.7C548.47 1240.14 548.342 1240.66 548.278 1241.23Z" fill="black" fill-opacity="0.7"/>
<path d="M559.128 1248V1236.34H560.76L560.928 1238.02H561C561.512 1237.46 562.064 1236.99 562.656 1236.62C563.264 1236.24 563.92 1236.05 564.624 1236.05C565.52 1236.05 566.216 1236.25 566.712 1236.65C567.224 1237.03 567.6 1237.58 567.84 1238.28C568.448 1237.61 569.056 1237.07 569.664 1236.67C570.288 1236.26 570.96 1236.05 571.68 1236.05C572.88 1236.05 573.768 1236.43 574.344 1237.2C574.936 1237.97 575.232 1239.1 575.232 1240.61V1248H573.264V1240.87C573.264 1239.77 573.088 1238.98 572.736 1238.5C572.384 1238 571.84 1237.75 571.104 1237.75C570.224 1237.75 569.248 1238.35 568.176 1239.55V1248H566.208V1240.87C566.208 1239.77 566.032 1238.98 565.68 1238.5C565.328 1238 564.776 1237.75 564.024 1237.75C563.144 1237.75 562.168 1238.35 561.096 1239.55V1248H559.128Z" fill="black" fill-opacity="0.7"/>
<path d="M583.831 1248V1236.34H585.799V1248H583.831ZM584.839 1233.94C584.455 1233.94 584.127 1233.82 583.855 1233.58C583.599 1233.34 583.471 1233.03 583.471 1232.66C583.471 1232.28 583.599 1231.98 583.855 1231.75C584.127 1231.51 584.455 1231.39 584.839 1231.39C585.223 1231.39 585.543 1231.51 585.799 1231.75C586.071 1231.98 586.207 1232.28 586.207 1232.66C586.207 1233.03 586.071 1233.34 585.799 1233.58C585.543 1233.82 585.223 1233.94 584.839 1233.94Z" fill="black" fill-opacity="0.7"/>
<path d="M589.738 1252.92V1236.34H591.37L591.538 1237.68H591.61C592.138 1237.23 592.714 1236.85 593.338 1236.53C593.978 1236.21 594.642 1236.05 595.33 1236.05C596.082 1236.05 596.746 1236.19 597.322 1236.48C597.898 1236.75 598.378 1237.15 598.762 1237.68C599.146 1238.19 599.434 1238.82 599.626 1239.55C599.834 1240.27 599.938 1241.09 599.938 1242C599.938 1242.99 599.802 1243.88 599.53 1244.66C599.258 1245.43 598.89 1246.09 598.426 1246.63C597.962 1247.18 597.426 1247.59 596.818 1247.88C596.21 1248.15 595.57 1248.29 594.898 1248.29C594.354 1248.29 593.81 1248.17 593.266 1247.93C592.738 1247.69 592.202 1247.36 591.658 1246.94L591.706 1248.98V1252.92H589.738ZM594.562 1246.63C595.042 1246.63 595.482 1246.53 595.882 1246.32C596.298 1246.1 596.65 1245.79 596.938 1245.41C597.242 1245.01 597.474 1244.52 597.634 1243.94C597.81 1243.37 597.898 1242.72 597.898 1242C597.898 1241.36 597.842 1240.78 597.73 1240.25C597.618 1239.72 597.434 1239.27 597.178 1238.9C596.938 1238.52 596.618 1238.22 596.218 1238.02C595.834 1237.81 595.37 1237.7 594.826 1237.7C594.33 1237.7 593.826 1237.84 593.314 1238.11C592.818 1238.38 592.282 1238.78 591.706 1239.29V1245.41C592.234 1245.86 592.746 1246.18 593.242 1246.37C593.738 1246.54 594.178 1246.63 594.562 1246.63Z" fill="black" fill-opacity="0.7"/>
<path d="M606.098 1248.29C605.266 1248.29 604.474 1248.14 603.722 1247.83C602.97 1247.53 602.314 1247.14 601.754 1246.68L602.738 1245.36C603.25 1245.78 603.77 1246.11 604.298 1246.37C604.842 1246.62 605.466 1246.75 606.17 1246.75C606.938 1246.75 607.514 1246.58 607.898 1246.22C608.282 1245.87 608.474 1245.44 608.474 1244.93C608.474 1244.62 608.394 1244.36 608.234 1244.14C608.074 1243.91 607.866 1243.72 607.61 1243.56C607.37 1243.38 607.09 1243.23 606.77 1243.1C606.45 1242.98 606.13 1242.85 605.81 1242.72C605.394 1242.58 604.978 1242.42 604.562 1242.24C604.146 1242.05 603.77 1241.82 603.434 1241.57C603.114 1241.3 602.85 1240.98 602.642 1240.63C602.434 1240.28 602.33 1239.86 602.33 1239.36C602.33 1238.9 602.418 1238.46 602.594 1238.06C602.786 1237.65 603.05 1237.3 603.386 1237.01C603.738 1236.7 604.162 1236.47 604.658 1236.31C605.154 1236.14 605.714 1236.05 606.338 1236.05C607.074 1236.05 607.746 1236.18 608.354 1236.43C608.978 1236.69 609.514 1237 609.962 1237.37L609.026 1238.62C608.626 1238.31 608.21 1238.06 607.778 1237.87C607.346 1237.68 606.874 1237.58 606.362 1237.58C605.626 1237.58 605.082 1237.75 604.73 1238.09C604.394 1238.42 604.226 1238.82 604.226 1239.26C604.226 1239.54 604.298 1239.78 604.442 1239.98C604.586 1240.18 604.778 1240.35 605.018 1240.51C605.258 1240.66 605.53 1240.79 605.834 1240.92C606.154 1241.03 606.482 1241.15 606.818 1241.28C607.234 1241.44 607.65 1241.61 608.066 1241.78C608.498 1241.96 608.882 1242.18 609.218 1242.46C609.554 1242.71 609.826 1243.03 610.034 1243.42C610.258 1243.8 610.37 1244.26 610.37 1244.81C610.37 1245.29 610.274 1245.74 610.082 1246.15C609.906 1246.57 609.634 1246.94 609.266 1247.26C608.914 1247.58 608.466 1247.82 607.922 1248C607.394 1248.19 606.786 1248.29 606.098 1248.29Z" fill="black" fill-opacity="0.7"/>
<path d="M616.513 1248.29C615.265 1248.29 614.353 1247.9 613.777 1247.14C613.217 1246.37 612.937 1245.23 612.937 1243.73V1236.34H614.929V1243.46C614.929 1244.57 615.097 1245.37 615.433 1245.86C615.785 1246.34 616.345 1246.58 617.113 1246.58C617.721 1246.58 618.257 1246.43 618.721 1246.13C619.185 1245.81 619.697 1245.3 620.257 1244.62V1236.34H622.225V1248H620.593L620.425 1246.18H620.353C619.809 1246.82 619.233 1247.33 618.625 1247.71C618.033 1248.1 617.329 1248.29 616.513 1248.29Z" fill="black" fill-opacity="0.7"/>
<path d="M626.159 1248V1236.34H627.791L627.959 1238.02H628.031C628.543 1237.46 629.095 1236.99 629.687 1236.62C630.295 1236.24 630.951 1236.05 631.655 1236.05C632.551 1236.05 633.247 1236.25 633.743 1236.65C634.255 1237.03 634.631 1237.58 634.871 1238.28C635.479 1237.61 636.087 1237.07 636.695 1236.67C637.319 1236.26 637.991 1236.05 638.711 1236.05C639.911 1236.05 640.799 1236.43 641.375 1237.2C641.967 1237.97 642.263 1239.1 642.263 1240.61V1248H640.295V1240.87C640.295 1239.77 640.119 1238.98 639.767 1238.5C639.415 1238 638.871 1237.75 638.135 1237.75C637.255 1237.75 636.279 1238.35 635.207 1239.55V1248H633.239V1240.87C633.239 1239.77 633.063 1238.98 632.711 1238.5C632.359 1238 631.807 1237.75 631.055 1237.75C630.175 1237.75 629.199 1238.35 628.127 1239.55V1248H626.159Z" fill="black" fill-opacity="0.7"/>
<path d="M654.847 1248.29C653.375 1248.29 652.199 1247.76 651.319 1246.7C650.455 1245.65 650.023 1244.14 650.023 1242.19C650.023 1241.25 650.159 1240.4 650.431 1239.65C650.719 1238.88 651.095 1238.23 651.559 1237.7C652.023 1237.18 652.559 1236.77 653.167 1236.48C653.775 1236.19 654.415 1236.05 655.087 1236.05C655.759 1236.05 656.343 1236.17 656.839 1236.41C657.335 1236.65 657.839 1236.98 658.351 1237.39L658.255 1235.4V1230.91H660.247V1248H658.615L658.447 1246.63H658.375C657.911 1247.08 657.375 1247.47 656.767 1247.81C656.175 1248.13 655.535 1248.29 654.847 1248.29ZM655.279 1246.63C655.823 1246.63 656.334 1246.5 656.814 1246.25C657.294 1245.98 657.775 1245.57 658.255 1245.02V1238.93C657.759 1238.48 657.278 1238.17 656.814 1237.99C656.366 1237.8 655.903 1237.7 655.423 1237.7C654.959 1237.7 654.519 1237.82 654.103 1238.04C653.703 1238.25 653.351 1238.55 653.047 1238.95C652.743 1239.34 652.503 1239.8 652.327 1240.34C652.151 1240.89 652.062 1241.5 652.062 1242.17C652.062 1243.58 652.343 1244.67 652.903 1245.46C653.463 1246.24 654.255 1246.63 655.279 1246.63Z" fill="black" fill-opacity="0.7"/>
<path d="M668.711 1248.29C667.991 1248.29 667.303 1248.15 666.647 1247.88C666.007 1247.61 665.439 1247.22 664.943 1246.7C664.447 1246.18 664.047 1245.54 663.743 1244.78C663.455 1244.02 663.311 1243.15 663.311 1242.19C663.311 1241.22 663.455 1240.35 663.743 1239.6C664.047 1238.83 664.447 1238.18 664.943 1237.66C665.439 1237.13 666.007 1236.73 666.647 1236.46C667.303 1236.18 667.991 1236.05 668.711 1236.05C669.431 1236.05 670.111 1236.18 670.751 1236.46C671.407 1236.73 671.983 1237.13 672.479 1237.66C672.975 1238.18 673.367 1238.83 673.655 1239.6C673.959 1240.35 674.111 1241.22 674.111 1242.19C674.111 1243.15 673.959 1244.02 673.655 1244.78C673.367 1245.54 672.975 1246.18 672.479 1246.7C671.983 1247.22 671.407 1247.61 670.751 1247.88C670.111 1248.15 669.431 1248.29 668.711 1248.29ZM668.711 1246.66C669.207 1246.66 669.663 1246.55 670.079 1246.34C670.495 1246.12 670.847 1245.82 671.135 1245.43C671.439 1245.03 671.671 1244.56 671.831 1244.02C671.991 1243.47 672.071 1242.86 672.071 1242.19C672.071 1241.52 671.991 1240.91 671.831 1240.37C671.671 1239.81 671.439 1239.33 671.135 1238.93C670.847 1238.53 670.495 1238.22 670.079 1238.02C669.663 1237.79 669.207 1237.68 668.711 1237.68C668.215 1237.68 667.759 1237.79 667.343 1238.02C666.927 1238.22 666.567 1238.53 666.263 1238.93C665.975 1239.33 665.751 1239.81 665.591 1240.37C665.431 1240.91 665.351 1241.52 665.351 1242.19C665.351 1242.86 665.431 1243.47 665.591 1244.02C665.751 1244.56 665.975 1245.03 666.263 1245.43C666.567 1245.82 666.927 1246.12 667.343 1246.34C667.759 1246.55 668.215 1246.66 668.711 1246.66Z" fill="black" fill-opacity="0.7"/>
<path d="M679.271 1248.29C678.519 1248.29 677.983 1248.06 677.663 1247.62C677.343 1247.17 677.183 1246.51 677.183 1245.65V1230.91H679.151V1245.79C679.151 1246.11 679.207 1246.34 679.319 1246.46C679.431 1246.59 679.559 1246.66 679.703 1246.66C679.767 1246.66 679.823 1246.66 679.871 1246.66C679.935 1246.66 680.023 1246.64 680.135 1246.61L680.399 1248.1C680.271 1248.16 680.119 1248.21 679.943 1248.24C679.767 1248.27 679.543 1248.29 679.271 1248.29Z" fill="black" fill-opacity="0.7"/>
<path d="M687.836 1248.29C687.116 1248.29 686.428 1248.15 685.772 1247.88C685.132 1247.61 684.564 1247.22 684.068 1246.7C683.572 1246.18 683.172 1245.54 682.868 1244.78C682.58 1244.02 682.436 1243.15 682.436 1242.19C682.436 1241.22 682.58 1240.35 682.868 1239.6C683.172 1238.83 683.572 1238.18 684.068 1237.66C684.564 1237.13 685.132 1236.73 685.772 1236.46C686.428 1236.18 687.116 1236.05 687.836 1236.05C688.556 1236.05 689.236 1236.18 689.876 1236.46C690.532 1236.73 691.108 1237.13 691.604 1237.66C692.1 1238.18 692.492 1238.83 692.78 1239.6C693.084 1240.35 693.236 1241.22 693.236 1242.19C693.236 1243.15 693.084 1244.02 692.78 1244.78C692.492 1245.54 692.1 1246.18 691.604 1246.7C691.108 1247.22 690.532 1247.61 689.876 1247.88C689.236 1248.15 688.556 1248.29 687.836 1248.29ZM687.836 1246.66C688.332 1246.66 688.788 1246.55 689.204 1246.34C689.62 1246.12 689.972 1245.82 690.26 1245.43C690.564 1245.03 690.796 1244.56 690.956 1244.02C691.116 1243.47 691.196 1242.86 691.196 1242.19C691.196 1241.52 691.116 1240.91 690.956 1240.37C690.796 1239.81 690.564 1239.33 690.26 1238.93C689.972 1238.53 689.62 1238.22 689.204 1238.02C688.788 1237.79 688.332 1237.68 687.836 1237.68C687.34 1237.68 686.884 1237.79 686.468 1238.02C686.052 1238.22 685.692 1238.53 685.388 1238.93C685.1 1239.33 684.876 1239.81 684.716 1240.37C684.556 1240.91 684.476 1241.52 684.476 1242.19C684.476 1242.86 684.556 1243.47 684.716 1244.02C684.876 1244.56 685.1 1245.03 685.388 1245.43C685.692 1245.82 686.052 1246.12 686.468 1246.34C686.884 1246.55 687.34 1246.66 687.836 1246.66Z" fill="black" fill-opacity="0.7"/>
<path d="M696.308 1248V1236.34H697.94L698.108 1238.45H698.18C698.58 1237.71 699.06 1237.13 699.62 1236.7C700.196 1236.26 700.82 1236.05 701.492 1236.05C701.956 1236.05 702.372 1236.13 702.74 1236.29L702.356 1238.02C702.164 1237.95 701.988 1237.9 701.828 1237.87C701.668 1237.84 701.468 1237.82 701.228 1237.82C700.732 1237.82 700.212 1238.02 699.668 1238.42C699.14 1238.82 698.676 1239.52 698.276 1240.51V1248H696.308Z" fill="black" fill-opacity="0.7"/>
<path d="M712.481 1248.29C711.649 1248.29 710.857 1248.14 710.105 1247.83C709.353 1247.53 708.697 1247.14 708.137 1246.68L709.121 1245.36C709.633 1245.78 710.153 1246.11 710.681 1246.37C711.225 1246.62 711.849 1246.75 712.553 1246.75C713.321 1246.75 713.897 1246.58 714.281 1246.22C714.665 1245.87 714.857 1245.44 714.857 1244.93C714.857 1244.62 714.777 1244.36 714.617 1244.14C714.457 1243.91 714.249 1243.72 713.993 1243.56C713.753 1243.38 713.473 1243.23 713.153 1243.1C712.833 1242.98 712.513 1242.85 712.193 1242.72C711.777 1242.58 711.361 1242.42 710.945 1242.24C710.529 1242.05 710.153 1241.82 709.817 1241.57C709.497 1241.3 709.233 1240.98 709.025 1240.63C708.817 1240.28 708.713 1239.86 708.713 1239.36C708.713 1238.9 708.801 1238.46 708.977 1238.06C709.169 1237.65 709.433 1237.3 709.769 1237.01C710.121 1236.7 710.545 1236.47 711.041 1236.31C711.537 1236.14 712.097 1236.05 712.721 1236.05C713.457 1236.05 714.129 1236.18 714.737 1236.43C715.361 1236.69 715.897 1237 716.345 1237.37L715.409 1238.62C715.009 1238.31 714.593 1238.06 714.161 1237.87C713.729 1237.68 713.257 1237.58 712.745 1237.58C712.009 1237.58 711.465 1237.75 711.113 1238.09C710.777 1238.42 710.609 1238.82 710.609 1239.26C710.609 1239.54 710.681 1239.78 710.825 1239.98C710.969 1240.18 711.161 1240.35 711.401 1240.51C711.641 1240.66 711.913 1240.79 712.217 1240.92C712.537 1241.03 712.865 1241.15 713.201 1241.28C713.617 1241.44 714.033 1241.61 714.449 1241.78C714.881 1241.96 715.265 1242.18 715.601 1242.46C715.937 1242.71 716.209 1243.03 716.417 1243.42C716.641 1243.8 716.753 1244.26 716.753 1244.81C716.753 1245.29 716.657 1245.74 716.465 1246.15C716.289 1246.57 716.017 1246.94 715.649 1247.26C715.297 1247.58 714.849 1247.82 714.305 1248C713.777 1248.19 713.169 1248.29 712.481 1248.29Z" fill="black" fill-opacity="0.7"/>
<path d="M719.488 1248V1236.34H721.456V1248H719.488ZM720.495 1233.94C720.111 1233.94 719.784 1233.82 719.512 1233.58C719.256 1233.34 719.128 1233.03 719.128 1232.66C719.128 1232.28 719.256 1231.98 719.512 1231.75C719.784 1231.51 720.111 1231.39 720.495 1231.39C720.879 1231.39 721.2 1231.51 721.456 1231.75C721.728 1231.98 721.864 1232.28 721.864 1232.66C721.864 1233.03 721.728 1233.34 721.456 1233.58C721.2 1233.82 720.879 1233.94 720.495 1233.94Z" fill="black" fill-opacity="0.7"/>
<path d="M729.066 1248.29C728.442 1248.29 727.914 1248.19 727.482 1248C727.066 1247.81 726.722 1247.54 726.45 1247.21C726.194 1246.87 726.01 1246.46 725.898 1245.98C725.786 1245.5 725.73 1244.98 725.73 1244.4V1237.94H724.002V1236.46L725.826 1236.34L726.066 1233.07H727.722V1236.34H730.866V1237.94H727.722V1244.42C727.722 1245.14 727.85 1245.7 728.106 1246.1C728.378 1246.49 728.85 1246.68 729.522 1246.68C729.73 1246.68 729.954 1246.65 730.194 1246.58C730.434 1246.52 730.65 1246.45 730.842 1246.37L731.226 1247.86C730.906 1247.97 730.554 1248.06 730.17 1248.14C729.802 1248.24 729.434 1248.29 729.066 1248.29Z" fill="black" fill-opacity="0.7"/>
<path d="M740.996 1248.29C740.02 1248.29 739.204 1248 738.548 1247.42C737.908 1246.85 737.588 1246.03 737.588 1244.98C737.588 1243.7 738.156 1242.72 739.292 1242.05C740.428 1241.36 742.244 1240.88 744.74 1240.61C744.74 1240.24 744.7 1239.88 744.62 1239.53C744.556 1239.18 744.436 1238.86 744.26 1238.59C744.084 1238.32 743.836 1238.1 743.516 1237.94C743.212 1237.77 742.82 1237.68 742.34 1237.68C741.668 1237.68 741.036 1237.81 740.444 1238.06C739.852 1238.32 739.324 1238.61 738.86 1238.93L738.092 1237.56C738.636 1237.21 739.3 1236.87 740.084 1236.55C740.868 1236.22 741.732 1236.05 742.676 1236.05C744.1 1236.05 745.132 1236.49 745.772 1237.37C746.412 1238.23 746.732 1239.39 746.732 1240.85V1248H745.1L744.932 1246.61H744.86C744.3 1247.07 743.7 1247.47 743.06 1247.81C742.42 1248.13 741.732 1248.29 740.996 1248.29ZM741.572 1246.7C742.132 1246.7 742.66 1246.58 743.156 1246.32C743.652 1246.05 744.18 1245.66 744.74 1245.14V1241.9C743.764 1242.03 742.94 1242.18 742.268 1242.36C741.612 1242.54 741.076 1242.74 740.66 1242.98C740.26 1243.22 739.964 1243.5 739.772 1243.82C739.596 1244.13 739.508 1244.46 739.508 1244.83C739.508 1245.5 739.708 1245.98 740.108 1246.27C740.508 1246.56 740.996 1246.7 741.572 1246.7Z" fill="black" fill-opacity="0.7"/>
<path d="M750.402 1248V1236.34H752.034L752.202 1238.02H752.274C752.786 1237.46 753.338 1236.99 753.93 1236.62C754.538 1236.24 755.194 1236.05 755.898 1236.05C756.794 1236.05 757.49 1236.25 757.986 1236.65C758.498 1237.03 758.874 1237.58 759.114 1238.28C759.722 1237.61 760.33 1237.07 760.938 1236.67C761.562 1236.26 762.234 1236.05 762.954 1236.05C764.154 1236.05 765.042 1236.43 765.618 1237.2C766.21 1237.97 766.506 1239.1 766.506 1240.61V1248H764.538V1240.87C764.538 1239.77 764.362 1238.98 764.01 1238.5C763.658 1238 763.114 1237.75 762.378 1237.75C761.498 1237.75 760.522 1238.35 759.45 1239.55V1248H757.482V1240.87C757.482 1239.77 757.306 1238.98 756.954 1238.5C756.602 1238 756.05 1237.75 755.298 1237.75C754.418 1237.75 753.442 1238.35 752.37 1239.55V1248H750.402Z" fill="black" fill-opacity="0.7"/>
<path d="M775.028 1248.29C774.244 1248.29 773.508 1248.15 772.82 1247.88C772.148 1247.59 771.556 1247.19 771.044 1246.68C770.548 1246.15 770.156 1245.51 769.868 1244.76C769.58 1244.01 769.436 1243.15 769.436 1242.19C769.436 1241.23 769.58 1240.38 769.868 1239.62C770.172 1238.86 770.564 1238.21 771.044 1237.68C771.54 1237.15 772.1 1236.75 772.724 1236.48C773.348 1236.19 773.996 1236.05 774.668 1236.05C775.404 1236.05 776.06 1236.18 776.636 1236.43C777.228 1236.69 777.716 1237.06 778.1 1237.54C778.5 1238.02 778.804 1238.59 779.012 1239.26C779.22 1239.94 779.324 1240.69 779.324 1241.52C779.324 1241.73 779.316 1241.94 779.3 1242.14C779.3 1242.34 779.284 1242.5 779.252 1242.65H771.38C771.46 1243.9 771.844 1244.89 772.532 1245.62C773.236 1246.34 774.148 1246.7 775.268 1246.7C775.828 1246.7 776.34 1246.62 776.804 1246.46C777.284 1246.29 777.74 1246.06 778.172 1245.79L778.868 1247.09C778.356 1247.41 777.788 1247.69 777.164 1247.93C776.54 1248.17 775.828 1248.29 775.028 1248.29ZM771.356 1241.23H777.596C777.596 1240.05 777.34 1239.15 776.828 1238.54C776.332 1237.92 775.628 1237.61 774.716 1237.61C774.3 1237.61 773.9 1237.69 773.516 1237.85C773.148 1238.01 772.812 1238.25 772.508 1238.57C772.204 1238.87 771.948 1239.25 771.74 1239.7C771.548 1240.14 771.42 1240.66 771.356 1241.23Z" fill="black" fill-opacity="0.7"/>
<path d="M785.644 1248.29C785.02 1248.29 784.492 1248.19 784.06 1248C783.644 1247.81 783.3 1247.54 783.028 1247.21C782.772 1246.87 782.588 1246.46 782.476 1245.98C782.364 1245.5 782.308 1244.98 782.308 1244.4V1237.94H780.58V1236.46L782.404 1236.34L782.644 1233.07H784.3V1236.34H787.444V1237.94H784.3V1244.42C784.3 1245.14 784.428 1245.7 784.684 1246.1C784.956 1246.49 785.428 1246.68 786.1 1246.68C786.308 1246.68 786.532 1246.65 786.772 1246.58C787.012 1246.52 787.228 1246.45 787.42 1246.37L787.804 1247.86C787.484 1247.97 787.132 1248.06 786.748 1248.14C786.38 1248.24 786.012 1248.29 785.644 1248.29Z" fill="black" fill-opacity="0.7"/>
<path d="M789.885 1252.08L789.405 1250.93C790.093 1250.62 790.629 1250.22 791.013 1249.7C791.397 1249.21 791.581 1248.64 791.565 1248C791.517 1248.02 791.437 1248.02 791.325 1248.02C790.941 1248.02 790.605 1247.91 790.317 1247.69C790.045 1247.45 789.909 1247.1 789.909 1246.66C789.909 1246.22 790.053 1245.89 790.341 1245.65C790.629 1245.39 790.973 1245.26 791.373 1245.26C791.885 1245.26 792.285 1245.47 792.573 1245.89C792.877 1246.3 793.029 1246.87 793.029 1247.59C793.029 1248.63 792.749 1249.54 792.189 1250.3C791.629 1251.07 790.861 1251.66 789.885 1252.08Z" fill="black" fill-opacity="0.7"/>
<path d="M805.635 1248.29C804.867 1248.29 804.147 1248.15 803.475 1247.88C802.803 1247.61 802.219 1247.22 801.723 1246.7C801.243 1246.18 800.859 1245.54 800.571 1244.78C800.299 1244.02 800.163 1243.15 800.163 1242.19C800.163 1241.22 800.315 1240.35 800.619 1239.6C800.923 1238.83 801.331 1238.18 801.843 1237.66C802.355 1237.13 802.947 1236.73 803.619 1236.46C804.307 1236.18 805.027 1236.05 805.779 1236.05C806.547 1236.05 807.203 1236.18 807.747 1236.46C808.291 1236.73 808.771 1237.05 809.187 1237.42L808.179 1238.71C807.843 1238.41 807.483 1238.16 807.099 1237.97C806.731 1237.78 806.315 1237.68 805.851 1237.68C805.323 1237.68 804.835 1237.79 804.387 1238.02C803.939 1238.22 803.555 1238.53 803.235 1238.93C802.915 1239.33 802.659 1239.81 802.467 1240.37C802.291 1240.91 802.203 1241.52 802.203 1242.19C802.203 1242.86 802.291 1243.47 802.467 1244.02C802.643 1244.56 802.883 1245.03 803.187 1245.43C803.507 1245.82 803.891 1246.12 804.339 1246.34C804.787 1246.55 805.275 1246.66 805.803 1246.66C806.347 1246.66 806.843 1246.54 807.291 1246.32C807.755 1246.08 808.171 1245.8 808.539 1245.48L809.403 1246.8C808.875 1247.26 808.291 1247.63 807.651 1247.9C807.011 1248.16 806.339 1248.29 805.635 1248.29Z" fill="black" fill-opacity="0.7"/>
<path d="M815.992 1248.29C815.272 1248.29 814.584 1248.15 813.928 1247.88C813.288 1247.61 812.72 1247.22 812.224 1246.7C811.728 1246.18 811.328 1245.54 811.024 1244.78C810.736 1244.02 810.592 1243.15 810.592 1242.19C810.592 1241.22 810.736 1240.35 811.024 1239.6C811.328 1238.83 811.728 1238.18 812.224 1237.66C812.72 1237.13 813.288 1236.73 813.928 1236.46C814.584 1236.18 815.272 1236.05 815.992 1236.05C816.712 1236.05 817.392 1236.18 818.032 1236.46C818.688 1236.73 819.264 1237.13 819.76 1237.66C820.256 1238.18 820.648 1238.83 820.936 1239.6C821.24 1240.35 821.392 1241.22 821.392 1242.19C821.392 1243.15 821.24 1244.02 820.936 1244.78C820.648 1245.54 820.256 1246.18 819.76 1246.7C819.264 1247.22 818.688 1247.61 818.032 1247.88C817.392 1248.15 816.712 1248.29 815.992 1248.29ZM815.992 1246.66C816.488 1246.66 816.944 1246.55 817.36 1246.34C817.776 1246.12 818.128 1245.82 818.416 1245.43C818.72 1245.03 818.952 1244.56 819.112 1244.02C819.272 1243.47 819.352 1242.86 819.352 1242.19C819.352 1241.52 819.272 1240.91 819.112 1240.37C818.952 1239.81 818.72 1239.33 818.416 1238.93C818.128 1238.53 817.776 1238.22 817.36 1238.02C816.944 1237.79 816.488 1237.68 815.992 1237.68C815.496 1237.68 815.04 1237.79 814.624 1238.02C814.208 1238.22 813.848 1238.53 813.544 1238.93C813.256 1239.33 813.032 1239.81 812.872 1240.37C812.712 1240.91 812.632 1241.52 812.632 1242.19C812.632 1242.86 812.712 1243.47 812.872 1244.02C813.032 1244.56 813.256 1245.03 813.544 1245.43C813.848 1245.82 814.208 1246.12 814.624 1246.34C815.04 1246.55 815.496 1246.66 815.992 1246.66Z" fill="black" fill-opacity="0.7"/>
<path d="M824.464 1248V1236.34H826.096L826.264 1238.02H826.336C826.896 1237.46 827.48 1236.99 828.088 1236.62C828.712 1236.24 829.432 1236.05 830.248 1236.05C831.48 1236.05 832.376 1236.43 832.936 1237.2C833.512 1237.97 833.8 1239.1 833.8 1240.61V1248H831.832V1240.87C831.832 1239.77 831.656 1238.98 831.304 1238.5C830.952 1238 830.392 1237.75 829.624 1237.75C829.016 1237.75 828.48 1237.9 828.016 1238.21C827.552 1238.51 827.024 1238.96 826.432 1239.55V1248H824.464Z" fill="black" fill-opacity="0.7"/>
<path d="M840.637 1248.29C839.805 1248.29 839.013 1248.14 838.261 1247.83C837.509 1247.53 836.853 1247.14 836.293 1246.68L837.277 1245.36C837.789 1245.78 838.309 1246.11 838.837 1246.37C839.381 1246.62 840.005 1246.75 840.709 1246.75C841.477 1246.75 842.053 1246.58 842.437 1246.22C842.821 1245.87 843.013 1245.44 843.013 1244.93C843.013 1244.62 842.933 1244.36 842.773 1244.14C842.613 1243.91 842.405 1243.72 842.149 1243.56C841.909 1243.38 841.629 1243.23 841.309 1243.1C840.989 1242.98 840.669 1242.85 840.349 1242.72C839.933 1242.58 839.517 1242.42 839.101 1242.24C838.685 1242.05 838.309 1241.82 837.973 1241.57C837.653 1241.3 837.389 1240.98 837.181 1240.63C836.973 1240.28 836.869 1239.86 836.869 1239.36C836.869 1238.9 836.957 1238.46 837.133 1238.06C837.325 1237.65 837.589 1237.3 837.925 1237.01C838.277 1236.7 838.701 1236.47 839.197 1236.31C839.693 1236.14 840.253 1236.05 840.877 1236.05C841.613 1236.05 842.285 1236.18 842.893 1236.43C843.517 1236.69 844.053 1237 844.501 1237.37L843.565 1238.62C843.165 1238.31 842.749 1238.06 842.317 1237.87C841.885 1237.68 841.413 1237.58 840.901 1237.58C840.165 1237.58 839.621 1237.75 839.269 1238.09C838.933 1238.42 838.765 1238.82 838.765 1239.26C838.765 1239.54 838.837 1239.78 838.981 1239.98C839.125 1240.18 839.317 1240.35 839.557 1240.51C839.797 1240.66 840.069 1240.79 840.373 1240.92C840.693 1241.03 841.021 1241.15 841.357 1241.28C841.773 1241.44 842.189 1241.61 842.605 1241.78C843.037 1241.96 843.421 1242.18 843.757 1242.46C844.093 1242.71 844.365 1243.03 844.573 1243.42C844.797 1243.8 844.909 1244.26 844.909 1244.81C844.909 1245.29 844.813 1245.74 844.621 1246.15C844.445 1246.57 844.173 1246.94 843.805 1247.26C843.453 1247.58 843.005 1247.82 842.461 1248C841.933 1248.19 841.325 1248.29 840.637 1248.29Z" fill="black" fill-opacity="0.7"/>
<path d="M852.372 1248.29C851.588 1248.29 850.852 1248.15 850.164 1247.88C849.492 1247.59 848.9 1247.19 848.388 1246.68C847.892 1246.15 847.5 1245.51 847.212 1244.76C846.924 1244.01 846.78 1243.15 846.78 1242.19C846.78 1241.23 846.924 1240.38 847.212 1239.62C847.516 1238.86 847.908 1238.21 848.388 1237.68C848.884 1237.15 849.444 1236.75 850.068 1236.48C850.692 1236.19 851.34 1236.05 852.012 1236.05C852.748 1236.05 853.404 1236.18 853.98 1236.43C854.572 1236.69 855.06 1237.06 855.444 1237.54C855.844 1238.02 856.148 1238.59 856.356 1239.26C856.564 1239.94 856.668 1240.69 856.668 1241.52C856.668 1241.73 856.66 1241.94 856.644 1242.14C856.644 1242.34 856.628 1242.5 856.596 1242.65H848.724C848.804 1243.9 849.188 1244.89 849.876 1245.62C850.58 1246.34 851.492 1246.7 852.612 1246.7C853.172 1246.7 853.684 1246.62 854.148 1246.46C854.628 1246.29 855.084 1246.06 855.516 1245.79L856.212 1247.09C855.7 1247.41 855.132 1247.69 854.508 1247.93C853.884 1248.17 853.172 1248.29 852.372 1248.29ZM848.7 1241.23H854.94C854.94 1240.05 854.684 1239.15 854.172 1238.54C853.676 1237.92 852.972 1237.61 852.06 1237.61C851.644 1237.61 851.244 1237.69 850.86 1237.85C850.492 1238.01 850.156 1238.25 849.852 1238.57C849.548 1238.87 849.292 1239.25 849.084 1239.7C848.892 1240.14 848.764 1240.66 848.7 1241.23Z" fill="black" fill-opacity="0.7"/>
<path d="M864.158 1248.29C863.39 1248.29 862.67 1248.15 861.998 1247.88C861.326 1247.61 860.742 1247.22 860.246 1246.7C859.766 1246.18 859.382 1245.54 859.094 1244.78C858.822 1244.02 858.686 1243.15 858.686 1242.19C858.686 1241.22 858.838 1240.35 859.142 1239.6C859.446 1238.83 859.854 1238.18 860.366 1237.66C860.878 1237.13 861.47 1236.73 862.142 1236.46C862.83 1236.18 863.55 1236.05 864.302 1236.05C865.07 1236.05 865.726 1236.18 866.27 1236.46C866.814 1236.73 867.294 1237.05 867.71 1237.42L866.702 1238.71C866.366 1238.41 866.006 1238.16 865.622 1237.97C865.254 1237.78 864.838 1237.68 864.374 1237.68C863.846 1237.68 863.358 1237.79 862.91 1238.02C862.462 1238.22 862.078 1238.53 861.758 1238.93C861.438 1239.33 861.182 1239.81 860.99 1240.37C860.814 1240.91 860.726 1241.52 860.726 1242.19C860.726 1242.86 860.814 1243.47 860.99 1244.02C861.166 1244.56 861.406 1245.03 861.71 1245.43C862.03 1245.82 862.414 1246.12 862.862 1246.34C863.31 1246.55 863.798 1246.66 864.326 1246.66C864.87 1246.66 865.366 1246.54 865.814 1246.32C866.278 1246.08 866.694 1245.8 867.062 1245.48L867.926 1246.8C867.398 1247.26 866.814 1247.63 866.174 1247.9C865.534 1248.16 864.862 1248.29 864.158 1248.29Z" fill="black" fill-opacity="0.7"/>
<path d="M873.933 1248.29C873.309 1248.29 872.781 1248.19 872.349 1248C871.933 1247.81 871.589 1247.54 871.317 1247.21C871.061 1246.87 870.877 1246.46 870.765 1245.98C870.653 1245.5 870.597 1244.98 870.597 1244.4V1237.94H868.869V1236.46L870.693 1236.34L870.933 1233.07H872.589V1236.34H875.733V1237.94H872.589V1244.42C872.589 1245.14 872.717 1245.7 872.973 1246.1C873.245 1246.49 873.717 1246.68 874.389 1246.68C874.597 1246.68 874.821 1246.65 875.061 1246.58C875.301 1246.52 875.517 1246.45 875.709 1246.37L876.093 1247.86C875.773 1247.97 875.421 1248.06 875.037 1248.14C874.669 1248.24 874.301 1248.29 873.933 1248.29Z" fill="black" fill-opacity="0.7"/>
<path d="M882.77 1248.29C881.986 1248.29 881.25 1248.15 880.562 1247.88C879.89 1247.59 879.298 1247.19 878.786 1246.68C878.29 1246.15 877.898 1245.51 877.61 1244.76C877.322 1244.01 877.178 1243.15 877.178 1242.19C877.178 1241.23 877.322 1240.38 877.61 1239.62C877.914 1238.86 878.306 1238.21 878.786 1237.68C879.282 1237.15 879.842 1236.75 880.466 1236.48C881.09 1236.19 881.738 1236.05 882.41 1236.05C883.146 1236.05 883.802 1236.18 884.378 1236.43C884.97 1236.69 885.458 1237.06 885.842 1237.54C886.242 1238.02 886.546 1238.59 886.754 1239.26C886.962 1239.94 887.066 1240.69 887.066 1241.52C887.066 1241.73 887.058 1241.94 887.042 1242.14C887.042 1242.34 887.026 1242.5 886.994 1242.65H879.122C879.202 1243.9 879.586 1244.89 880.274 1245.62C880.978 1246.34 881.89 1246.7 883.01 1246.7C883.57 1246.7 884.082 1246.62 884.546 1246.46C885.026 1246.29 885.482 1246.06 885.914 1245.79L886.61 1247.09C886.098 1247.41 885.53 1247.69 884.906 1247.93C884.282 1248.17 883.57 1248.29 882.77 1248.29ZM879.098 1241.23H885.338C885.338 1240.05 885.082 1239.15 884.57 1238.54C884.074 1237.92 883.37 1237.61 882.458 1237.61C882.042 1237.61 881.642 1237.69 881.258 1237.85C880.89 1238.01 880.554 1238.25 880.25 1238.57C879.946 1238.87 879.69 1239.25 879.482 1239.7C879.29 1240.14 879.162 1240.66 879.098 1241.23Z" fill="black" fill-opacity="0.7"/>
<path d="M893.386 1248.29C892.762 1248.29 892.234 1248.19 891.802 1248C891.386 1247.81 891.042 1247.54 890.77 1247.21C890.514 1246.87 890.33 1246.46 890.218 1245.98C890.106 1245.5 890.05 1244.98 890.05 1244.4V1237.94H888.322V1236.46L890.146 1236.34L890.386 1233.07H892.042V1236.34H895.186V1237.94H892.042V1244.42C892.042 1245.14 892.17 1245.7 892.426 1246.1C892.698 1246.49 893.17 1246.68 893.842 1246.68C894.05 1246.68 894.274 1246.65 894.514 1246.58C894.754 1246.52 894.97 1246.45 895.162 1246.37L895.546 1247.86C895.226 1247.97 894.874 1248.06 894.49 1248.14C894.122 1248.24 893.754 1248.29 893.386 1248.29Z" fill="black" fill-opacity="0.7"/>
<path d="M901.231 1248.29C899.983 1248.29 899.071 1247.9 898.495 1247.14C897.935 1246.37 897.655 1245.23 897.655 1243.73V1236.34H899.647V1243.46C899.647 1244.57 899.815 1245.37 900.151 1245.86C900.503 1246.34 901.063 1246.58 901.831 1246.58C902.439 1246.58 902.975 1246.43 903.439 1246.13C903.903 1245.81 904.415 1245.3 904.975 1244.62V1236.34H906.943V1248H905.311L905.143 1246.18H905.071C904.527 1246.82 903.951 1247.33 903.343 1247.71C902.751 1248.1 902.047 1248.29 901.231 1248.29Z" fill="black" fill-opacity="0.7"/>
<path d="M910.878 1248V1236.34H912.51L912.678 1238.45H912.75C913.15 1237.71 913.63 1237.13 914.19 1236.7C914.766 1236.26 915.39 1236.05 916.062 1236.05C916.526 1236.05 916.942 1236.13 917.31 1236.29L916.926 1238.02C916.734 1237.95 916.558 1237.9 916.398 1237.87C916.238 1237.84 916.038 1237.82 915.798 1237.82C915.302 1237.82 914.782 1238.02 914.238 1238.42C913.71 1238.82 913.246 1239.52 912.846 1240.51V1248H910.878Z" fill="black" fill-opacity="0.7"/>
<path d="M573.183 1280.29C572.207 1280.29 571.391 1280 570.735 1279.42C570.095 1278.85 569.775 1278.03 569.775 1276.98C569.775 1275.7 570.343 1274.72 571.479 1274.05C572.615 1273.36 574.431 1272.88 576.927 1272.61C576.927 1272.24 576.887 1271.88 576.807 1271.53C576.743 1271.18 576.623 1270.86 576.447 1270.59C576.271 1270.32 576.023 1270.1 575.703 1269.94C575.399 1269.77 575.007 1269.68 574.527 1269.68C573.855 1269.68 573.223 1269.81 572.631 1270.06C572.039 1270.32 571.511 1270.61 571.047 1270.93L570.279 1269.56C570.823 1269.21 571.487 1268.87 572.271 1268.55C573.055 1268.22 573.919 1268.05 574.863 1268.05C576.287 1268.05 577.319 1268.49 577.959 1269.37C578.599 1270.23 578.919 1271.39 578.919 1272.85V1280H577.287L577.119 1278.61H577.047C576.487 1279.07 575.887 1279.47 575.247 1279.81C574.607 1280.13 573.919 1280.29 573.183 1280.29ZM573.759 1278.7C574.319 1278.7 574.847 1278.58 575.343 1278.32C575.839 1278.05 576.367 1277.66 576.927 1277.14V1273.9C575.951 1274.03 575.127 1274.18 574.455 1274.36C573.799 1274.54 573.263 1274.74 572.847 1274.98C572.447 1275.22 572.151 1275.5 571.959 1275.82C571.783 1276.13 571.695 1276.46 571.695 1276.83C571.695 1277.5 571.895 1277.98 572.295 1278.27C572.695 1278.56 573.183 1278.7 573.759 1278.7Z" fill="black" fill-opacity="0.7"/>
<path d="M586.573 1280.29C585.101 1280.29 583.925 1279.76 583.045 1278.7C582.181 1277.65 581.749 1276.14 581.749 1274.19C581.749 1273.25 581.885 1272.4 582.157 1271.65C582.445 1270.88 582.821 1270.23 583.285 1269.7C583.749 1269.18 584.285 1268.77 584.893 1268.48C585.501 1268.19 586.141 1268.05 586.813 1268.05C587.485 1268.05 588.069 1268.17 588.565 1268.41C589.061 1268.65 589.565 1268.98 590.077 1269.39L589.981 1267.4V1262.91H591.973V1280H590.341L590.173 1278.63H590.101C589.637 1279.08 589.101 1279.47 588.493 1279.81C587.901 1280.13 587.261 1280.29 586.573 1280.29ZM587.005 1278.63C587.549 1278.63 588.061 1278.5 588.541 1278.25C589.021 1277.98 589.501 1277.57 589.981 1277.02V1270.93C589.485 1270.48 589.005 1270.17 588.541 1269.99C588.093 1269.8 587.629 1269.7 587.149 1269.7C586.685 1269.7 586.245 1269.82 585.829 1270.04C585.429 1270.25 585.077 1270.55 584.773 1270.95C584.469 1271.34 584.229 1271.8 584.053 1272.34C583.877 1272.89 583.789 1273.5 583.789 1274.17C583.789 1275.58 584.069 1276.67 584.629 1277.46C585.189 1278.24 585.981 1278.63 587.005 1278.63Z" fill="black" fill-opacity="0.7"/>
<path d="M595.902 1280V1268.34H597.87V1280H595.902ZM596.91 1265.94C596.526 1265.94 596.198 1265.82 595.926 1265.58C595.67 1265.34 595.542 1265.03 595.542 1264.66C595.542 1264.28 595.67 1263.98 595.926 1263.75C596.198 1263.51 596.526 1263.39 596.91 1263.39C597.294 1263.39 597.614 1263.51 597.87 1263.75C598.142 1263.98 598.278 1264.28 598.278 1264.66C598.278 1265.03 598.142 1265.34 597.87 1265.58C597.614 1265.82 597.294 1265.94 596.91 1265.94Z" fill="black" fill-opacity="0.7"/>
<path d="M601.808 1284.92V1268.34H603.44L603.608 1269.68H603.68C604.208 1269.23 604.784 1268.85 605.408 1268.53C606.048 1268.21 606.712 1268.05 607.4 1268.05C608.152 1268.05 608.816 1268.19 609.392 1268.48C609.968 1268.75 610.448 1269.15 610.832 1269.68C611.216 1270.19 611.504 1270.82 611.696 1271.55C611.904 1272.27 612.008 1273.09 612.008 1274C612.008 1274.99 611.872 1275.88 611.6 1276.66C611.328 1277.43 610.96 1278.09 610.496 1278.63C610.032 1279.18 609.496 1279.59 608.888 1279.88C608.28 1280.15 607.64 1280.29 606.968 1280.29C606.424 1280.29 605.88 1280.17 605.336 1279.93C604.808 1279.69 604.272 1279.36 603.728 1278.94L603.776 1280.98V1284.92H601.808ZM606.632 1278.63C607.112 1278.63 607.552 1278.53 607.952 1278.32C608.368 1278.1 608.72 1277.79 609.008 1277.41C609.312 1277.01 609.544 1276.52 609.704 1275.94C609.88 1275.37 609.968 1274.72 609.968 1274C609.968 1273.36 609.912 1272.78 609.8 1272.25C609.688 1271.72 609.504 1271.27 609.248 1270.9C609.008 1270.52 608.688 1270.22 608.288 1270.02C607.904 1269.81 607.44 1269.7 606.896 1269.7C606.4 1269.7 605.896 1269.84 605.384 1270.11C604.888 1270.38 604.352 1270.78 603.776 1271.29V1277.41C604.304 1277.86 604.816 1278.18 605.312 1278.37C605.808 1278.54 606.248 1278.63 606.632 1278.63Z" fill="black" fill-opacity="0.7"/>
<path d="M615.12 1280V1268.34H617.088V1280H615.12ZM616.128 1265.94C615.744 1265.94 615.416 1265.82 615.144 1265.58C614.888 1265.34 614.76 1265.03 614.76 1264.66C614.76 1264.28 614.888 1263.98 615.144 1263.75C615.416 1263.51 615.744 1263.39 616.128 1263.39C616.512 1263.39 616.832 1263.51 617.088 1263.75C617.36 1263.98 617.496 1264.28 617.496 1264.66C617.496 1265.03 617.36 1265.34 617.088 1265.58C616.832 1265.82 616.512 1265.94 616.128 1265.94Z" fill="black" fill-opacity="0.7"/>
<path d="M624.075 1280.29C623.243 1280.29 622.451 1280.14 621.699 1279.83C620.947 1279.53 620.291 1279.14 619.731 1278.68L620.715 1277.36C621.227 1277.78 621.747 1278.11 622.275 1278.37C622.819 1278.62 623.443 1278.75 624.147 1278.75C624.915 1278.75 625.491 1278.58 625.875 1278.22C626.259 1277.87 626.451 1277.44 626.451 1276.93C626.451 1276.62 626.371 1276.36 626.211 1276.14C626.051 1275.91 625.843 1275.72 625.587 1275.56C625.347 1275.38 625.067 1275.23 624.747 1275.1C624.427 1274.98 624.107 1274.85 623.787 1274.72C623.371 1274.58 622.955 1274.42 622.539 1274.24C622.123 1274.05 621.747 1273.82 621.411 1273.57C621.091 1273.3 620.827 1272.98 620.619 1272.63C620.411 1272.28 620.307 1271.86 620.307 1271.36C620.307 1270.9 620.395 1270.46 620.571 1270.06C620.763 1269.65 621.027 1269.3 621.363 1269.01C621.715 1268.7 622.139 1268.47 622.635 1268.31C623.131 1268.14 623.691 1268.05 624.315 1268.05C625.051 1268.05 625.723 1268.18 626.331 1268.43C626.955 1268.69 627.491 1269 627.939 1269.37L627.003 1270.62C626.603 1270.31 626.187 1270.06 625.755 1269.87C625.323 1269.68 624.851 1269.58 624.339 1269.58C623.603 1269.58 623.059 1269.75 622.707 1270.09C622.371 1270.42 622.203 1270.82 622.203 1271.26C622.203 1271.54 622.275 1271.78 622.419 1271.98C622.563 1272.18 622.755 1272.35 622.995 1272.51C623.235 1272.66 623.507 1272.79 623.811 1272.92C624.131 1273.03 624.459 1273.15 624.795 1273.28C625.211 1273.44 625.627 1273.61 626.043 1273.78C626.475 1273.96 626.859 1274.18 627.195 1274.46C627.531 1274.71 627.803 1275.03 628.011 1275.42C628.235 1275.8 628.347 1276.26 628.347 1276.81C628.347 1277.29 628.251 1277.74 628.059 1278.15C627.883 1278.57 627.611 1278.94 627.243 1279.26C626.891 1279.58 626.443 1279.82 625.899 1280C625.371 1280.19 624.763 1280.29 624.075 1280.29Z" fill="black" fill-opacity="0.7"/>
<path d="M635.689 1280.29C634.921 1280.29 634.201 1280.15 633.529 1279.88C632.857 1279.61 632.273 1279.22 631.777 1278.7C631.297 1278.18 630.913 1277.54 630.625 1276.78C630.353 1276.02 630.217 1275.15 630.217 1274.19C630.217 1273.22 630.369 1272.35 630.673 1271.6C630.977 1270.83 631.385 1270.18 631.897 1269.66C632.409 1269.13 633.001 1268.73 633.673 1268.46C634.361 1268.18 635.081 1268.05 635.833 1268.05C636.601 1268.05 637.257 1268.18 637.801 1268.46C638.345 1268.73 638.825 1269.05 639.241 1269.42L638.233 1270.71C637.897 1270.41 637.537 1270.16 637.153 1269.97C636.785 1269.78 636.369 1269.68 635.905 1269.68C635.377 1269.68 634.889 1269.79 634.441 1270.02C633.993 1270.22 633.609 1270.53 633.289 1270.93C632.969 1271.33 632.713 1271.81 632.521 1272.37C632.345 1272.91 632.257 1273.52 632.257 1274.19C632.257 1274.86 632.345 1275.47 632.521 1276.02C632.697 1276.56 632.937 1277.03 633.241 1277.43C633.561 1277.82 633.945 1278.12 634.393 1278.34C634.841 1278.55 635.329 1278.66 635.857 1278.66C636.401 1278.66 636.897 1278.54 637.345 1278.32C637.809 1278.08 638.225 1277.8 638.593 1277.48L639.457 1278.8C638.929 1279.26 638.345 1279.63 637.705 1279.9C637.065 1280.16 636.393 1280.29 635.689 1280.29Z" fill="black" fill-opacity="0.7"/>
<path d="M642.027 1280V1268.34H643.995V1280H642.027ZM643.035 1265.94C642.651 1265.94 642.323 1265.82 642.051 1265.58C641.795 1265.34 641.667 1265.03 641.667 1264.66C641.667 1264.28 641.795 1263.98 642.051 1263.75C642.323 1263.51 642.651 1263.39 643.035 1263.39C643.419 1263.39 643.739 1263.51 643.995 1263.75C644.267 1263.98 644.403 1264.28 644.403 1264.66C644.403 1265.03 644.267 1265.34 643.995 1265.58C643.739 1265.82 643.419 1265.94 643.035 1265.94Z" fill="black" fill-opacity="0.7"/>
<path d="M647.933 1280V1268.34H649.565L649.733 1270.02H649.805C650.365 1269.46 650.949 1268.99 651.557 1268.62C652.181 1268.24 652.901 1268.05 653.717 1268.05C654.949 1268.05 655.845 1268.43 656.405 1269.2C656.981 1269.97 657.269 1271.1 657.269 1272.61V1280H655.301V1272.87C655.301 1271.77 655.125 1270.98 654.773 1270.5C654.421 1270 653.861 1269.75 653.093 1269.75C652.485 1269.75 651.949 1269.9 651.485 1270.21C651.021 1270.51 650.493 1270.96 649.901 1271.55V1280H647.933Z" fill="black" fill-opacity="0.7"/>
<path d="M664.994 1285.38C664.274 1285.38 663.618 1285.3 663.026 1285.16C662.434 1285.03 661.922 1284.83 661.49 1284.56C661.074 1284.29 660.746 1283.96 660.506 1283.58C660.282 1283.19 660.17 1282.74 660.17 1282.23C660.17 1281.74 660.322 1281.26 660.626 1280.82C660.93 1280.37 661.346 1279.96 661.874 1279.59V1279.5C661.586 1279.32 661.338 1279.08 661.13 1278.78C660.938 1278.46 660.842 1278.06 660.842 1277.6C660.842 1277.1 660.978 1276.67 661.25 1276.3C661.522 1275.94 661.81 1275.65 662.114 1275.44V1275.34C661.73 1275.02 661.378 1274.6 661.058 1274.07C660.754 1273.53 660.602 1272.9 660.602 1272.2C660.602 1271.56 660.714 1270.98 660.938 1270.47C661.178 1269.96 661.498 1269.53 661.898 1269.18C662.298 1268.81 662.762 1268.53 663.29 1268.34C663.834 1268.14 664.402 1268.05 664.994 1268.05C665.314 1268.05 665.61 1268.08 665.882 1268.14C666.17 1268.19 666.426 1268.26 666.65 1268.34H670.706V1269.85H668.306C668.578 1270.12 668.802 1270.46 668.978 1270.88C669.17 1271.3 669.266 1271.75 669.266 1272.25C669.266 1272.87 669.154 1273.44 668.93 1273.95C668.706 1274.45 668.402 1274.87 668.018 1275.22C667.634 1275.56 667.178 1275.82 666.65 1276.02C666.138 1276.21 665.586 1276.3 664.994 1276.3C664.706 1276.3 664.41 1276.27 664.106 1276.21C663.802 1276.13 663.514 1276.02 663.242 1275.9C663.034 1276.07 662.858 1276.27 662.714 1276.5C662.57 1276.7 662.498 1276.97 662.498 1277.29C662.498 1277.66 662.642 1277.96 662.93 1278.2C663.218 1278.44 663.762 1278.56 664.562 1278.56H666.818C668.178 1278.56 669.194 1278.78 669.866 1279.23C670.554 1279.66 670.898 1280.37 670.898 1281.34C670.898 1281.89 670.762 1282.4 670.49 1282.88C670.218 1283.38 669.826 1283.81 669.314 1284.18C668.802 1284.54 668.178 1284.83 667.442 1285.04C666.722 1285.26 665.906 1285.38 664.994 1285.38ZM664.994 1274.98C665.33 1274.98 665.642 1274.92 665.93 1274.79C666.234 1274.66 666.498 1274.48 666.722 1274.24C666.962 1274 667.146 1273.71 667.274 1273.38C667.402 1273.02 667.466 1272.63 667.466 1272.2C667.466 1271.34 667.226 1270.67 666.746 1270.21C666.266 1269.73 665.682 1269.49 664.994 1269.49C664.306 1269.49 663.722 1269.73 663.242 1270.21C662.762 1270.67 662.522 1271.34 662.522 1272.2C662.522 1272.63 662.586 1273.02 662.714 1273.38C662.842 1273.71 663.018 1274 663.242 1274.24C663.482 1274.48 663.746 1274.66 664.034 1274.79C664.338 1274.92 664.658 1274.98 664.994 1274.98ZM665.282 1284.01C665.842 1284.01 666.346 1283.94 666.794 1283.79C667.258 1283.66 667.65 1283.49 667.97 1283.26C668.29 1283.06 668.538 1282.81 668.714 1282.52C668.89 1282.23 668.978 1281.94 668.978 1281.63C668.978 1281.09 668.778 1280.71 668.378 1280.5C667.978 1280.3 667.394 1280.19 666.626 1280.19H664.61C664.386 1280.19 664.138 1280.18 663.866 1280.14C663.61 1280.13 663.354 1280.08 663.098 1280C662.682 1280.3 662.378 1280.62 662.186 1280.96C661.994 1281.3 661.898 1281.63 661.898 1281.97C661.898 1282.59 662.194 1283.09 662.786 1283.46C663.394 1283.82 664.226 1284.01 665.282 1284.01Z" fill="black" fill-opacity="0.7"/>
<path d="M682.684 1280.29C681.9 1280.29 681.164 1280.15 680.476 1279.88C679.804 1279.59 679.212 1279.19 678.7 1278.68C678.204 1278.15 677.812 1277.51 677.524 1276.76C677.236 1276.01 677.092 1275.15 677.092 1274.19C677.092 1273.23 677.236 1272.38 677.524 1271.62C677.828 1270.86 678.22 1270.21 678.7 1269.68C679.196 1269.15 679.756 1268.75 680.38 1268.48C681.004 1268.19 681.652 1268.05 682.324 1268.05C683.06 1268.05 683.716 1268.18 684.292 1268.43C684.884 1268.69 685.372 1269.06 685.756 1269.54C686.156 1270.02 686.46 1270.59 686.668 1271.26C686.876 1271.94 686.98 1272.69 686.98 1273.52C686.98 1273.73 686.972 1273.94 686.956 1274.14C686.956 1274.34 686.94 1274.5 686.908 1274.65H679.036C679.116 1275.9 679.5 1276.89 680.188 1277.62C680.892 1278.34 681.804 1278.7 682.924 1278.7C683.484 1278.7 683.996 1278.62 684.46 1278.46C684.94 1278.29 685.396 1278.06 685.828 1277.79L686.524 1279.09C686.012 1279.41 685.444 1279.69 684.82 1279.93C684.196 1280.17 683.484 1280.29 682.684 1280.29ZM679.012 1273.23H685.252C685.252 1272.05 684.996 1271.15 684.484 1270.54C683.988 1269.92 683.284 1269.61 682.372 1269.61C681.956 1269.61 681.556 1269.69 681.172 1269.85C680.804 1270.01 680.468 1270.25 680.164 1270.57C679.86 1270.87 679.604 1271.25 679.396 1271.7C679.204 1272.14 679.076 1272.66 679.012 1273.23Z" fill="black" fill-opacity="0.7"/>
<path d="M691.951 1280.29C691.199 1280.29 690.662 1280.06 690.342 1279.62C690.022 1279.17 689.863 1278.51 689.863 1277.65V1262.91H691.831V1277.79C691.831 1278.11 691.887 1278.34 691.999 1278.46C692.111 1278.59 692.239 1278.66 692.383 1278.66C692.447 1278.66 692.503 1278.66 692.551 1278.66C692.615 1278.66 692.702 1278.64 692.814 1278.61L693.079 1280.1C692.951 1280.16 692.798 1280.21 692.622 1280.24C692.446 1280.27 692.223 1280.29 691.951 1280.29Z" fill="black" fill-opacity="0.7"/>
<path d="M695.98 1280V1268.34H697.948V1280H695.98ZM696.988 1265.94C696.604 1265.94 696.276 1265.82 696.004 1265.58C695.748 1265.34 695.62 1265.03 695.62 1264.66C695.62 1264.28 695.748 1263.98 696.004 1263.75C696.276 1263.51 696.604 1263.39 696.988 1263.39C697.372 1263.39 697.692 1263.51 697.948 1263.75C698.22 1263.98 698.356 1264.28 698.356 1264.66C698.356 1265.03 698.22 1265.34 697.948 1265.58C697.692 1265.82 697.372 1265.94 696.988 1265.94Z" fill="black" fill-opacity="0.7"/>
<path d="M705.558 1280.29C704.934 1280.29 704.406 1280.19 703.974 1280C703.558 1279.81 703.214 1279.54 702.942 1279.21C702.686 1278.87 702.502 1278.46 702.39 1277.98C702.278 1277.5 702.222 1276.98 702.222 1276.4V1269.94H700.494V1268.46L702.318 1268.34L702.558 1265.07H704.214V1268.34H707.358V1269.94H704.214V1276.42C704.214 1277.14 704.342 1277.7 704.598 1278.1C704.87 1278.49 705.342 1278.68 706.014 1278.68C706.222 1278.68 706.446 1278.65 706.686 1278.58C706.926 1278.52 707.142 1278.45 707.334 1278.37L707.718 1279.86C707.398 1279.97 707.046 1280.06 706.662 1280.14C706.294 1280.24 705.926 1280.29 705.558 1280.29Z" fill="black" fill-opacity="0.7"/>
<path d="M717.848 1280.29C717.016 1280.29 716.224 1280.14 715.472 1279.83C714.72 1279.53 714.064 1279.14 713.504 1278.68L714.488 1277.36C715 1277.78 715.52 1278.11 716.048 1278.37C716.592 1278.62 717.216 1278.75 717.92 1278.75C718.688 1278.75 719.264 1278.58 719.648 1278.22C720.032 1277.87 720.224 1277.44 720.224 1276.93C720.224 1276.62 720.144 1276.36 719.984 1276.14C719.824 1275.91 719.616 1275.72 719.36 1275.56C719.12 1275.38 718.84 1275.23 718.52 1275.1C718.2 1274.98 717.88 1274.85 717.56 1274.72C717.144 1274.58 716.728 1274.42 716.312 1274.24C715.896 1274.05 715.52 1273.82 715.184 1273.57C714.864 1273.3 714.6 1272.98 714.392 1272.63C714.184 1272.28 714.08 1271.86 714.08 1271.36C714.08 1270.9 714.168 1270.46 714.344 1270.06C714.536 1269.65 714.8 1269.3 715.136 1269.01C715.488 1268.7 715.912 1268.47 716.408 1268.31C716.904 1268.14 717.464 1268.05 718.088 1268.05C718.824 1268.05 719.496 1268.18 720.104 1268.43C720.728 1268.69 721.264 1269 721.712 1269.37L720.776 1270.62C720.376 1270.31 719.96 1270.06 719.528 1269.87C719.096 1269.68 718.624 1269.58 718.112 1269.58C717.376 1269.58 716.832 1269.75 716.48 1270.09C716.144 1270.42 715.976 1270.82 715.976 1271.26C715.976 1271.54 716.048 1271.78 716.192 1271.98C716.336 1272.18 716.528 1272.35 716.768 1272.51C717.008 1272.66 717.28 1272.79 717.584 1272.92C717.904 1273.03 718.232 1273.15 718.568 1273.28C718.984 1273.44 719.4 1273.61 719.816 1273.78C720.248 1273.96 720.632 1274.18 720.968 1274.46C721.304 1274.71 721.576 1275.03 721.784 1275.42C722.008 1275.8 722.12 1276.26 722.12 1276.81C722.12 1277.29 722.024 1277.74 721.832 1278.15C721.656 1278.57 721.384 1278.94 721.016 1279.26C720.664 1279.58 720.216 1279.82 719.672 1280C719.144 1280.19 718.536 1280.29 717.848 1280.29Z" fill="black" fill-opacity="0.7"/>
<path d="M729.583 1280.29C728.799 1280.29 728.063 1280.15 727.375 1279.88C726.703 1279.59 726.111 1279.19 725.599 1278.68C725.103 1278.15 724.711 1277.51 724.423 1276.76C724.135 1276.01 723.991 1275.15 723.991 1274.19C723.991 1273.23 724.135 1272.38 724.423 1271.62C724.727 1270.86 725.119 1270.21 725.599 1269.68C726.095 1269.15 726.655 1268.75 727.279 1268.48C727.903 1268.19 728.551 1268.05 729.223 1268.05C729.959 1268.05 730.615 1268.18 731.191 1268.43C731.783 1268.69 732.271 1269.06 732.655 1269.54C733.055 1270.02 733.359 1270.59 733.567 1271.26C733.775 1271.94 733.879 1272.69 733.879 1273.52C733.879 1273.73 733.871 1273.94 733.855 1274.14C733.855 1274.34 733.839 1274.5 733.807 1274.65H725.935C726.015 1275.9 726.399 1276.89 727.087 1277.62C727.791 1278.34 728.703 1278.7 729.823 1278.7C730.383 1278.7 730.895 1278.62 731.359 1278.46C731.839 1278.29 732.295 1278.06 732.727 1277.79L733.423 1279.09C732.911 1279.41 732.343 1279.69 731.719 1279.93C731.095 1280.17 730.383 1280.29 729.583 1280.29ZM725.911 1273.23H732.151C732.151 1272.05 731.895 1271.15 731.383 1270.54C730.887 1269.92 730.183 1269.61 729.271 1269.61C728.855 1269.61 728.455 1269.69 728.071 1269.85C727.703 1270.01 727.367 1270.25 727.063 1270.57C726.759 1270.87 726.503 1271.25 726.295 1271.7C726.103 1272.14 725.975 1272.66 725.911 1273.23Z" fill="black" fill-opacity="0.7"/>
<path d="M740.745 1280.29C739.273 1280.29 738.097 1279.76 737.217 1278.7C736.353 1277.65 735.921 1276.14 735.921 1274.19C735.921 1273.25 736.057 1272.4 736.329 1271.65C736.617 1270.88 736.993 1270.23 737.457 1269.7C737.921 1269.18 738.457 1268.77 739.065 1268.48C739.673 1268.19 740.313 1268.05 740.985 1268.05C741.657 1268.05 742.241 1268.17 742.737 1268.41C743.233 1268.65 743.737 1268.98 744.249 1269.39L744.153 1267.4V1262.91H746.145V1280H744.513L744.345 1278.63H744.273C743.809 1279.08 743.273 1279.47 742.665 1279.81C742.073 1280.13 741.433 1280.29 740.745 1280.29ZM741.177 1278.63C741.721 1278.63 742.233 1278.5 742.713 1278.25C743.193 1277.98 743.673 1277.57 744.153 1277.02V1270.93C743.657 1270.48 743.177 1270.17 742.713 1269.99C742.265 1269.8 741.801 1269.7 741.321 1269.7C740.857 1269.7 740.417 1269.82 740.001 1270.04C739.601 1270.25 739.249 1270.55 738.945 1270.95C738.641 1271.34 738.401 1271.8 738.225 1272.34C738.049 1272.89 737.961 1273.5 737.961 1274.17C737.961 1275.58 738.241 1276.67 738.801 1277.46C739.361 1278.24 740.153 1278.63 741.177 1278.63Z" fill="black" fill-opacity="0.7"/>
<path d="M758.862 1280.29C757.39 1280.29 756.214 1279.76 755.334 1278.7C754.47 1277.65 754.038 1276.14 754.038 1274.19C754.038 1273.25 754.174 1272.4 754.446 1271.65C754.734 1270.88 755.11 1270.23 755.574 1269.7C756.038 1269.18 756.574 1268.77 757.182 1268.48C757.79 1268.19 758.43 1268.05 759.102 1268.05C759.774 1268.05 760.358 1268.17 760.854 1268.41C761.35 1268.65 761.854 1268.98 762.366 1269.39L762.27 1267.4V1262.91H764.262V1280H762.63L762.462 1278.63H762.39C761.926 1279.08 761.39 1279.47 760.782 1279.81C760.19 1280.13 759.55 1280.29 758.862 1280.29ZM759.294 1278.63C759.838 1278.63 760.35 1278.5 760.83 1278.25C761.31 1277.98 761.79 1277.57 762.27 1277.02V1270.93C761.774 1270.48 761.294 1270.17 760.83 1269.99C760.382 1269.8 759.918 1269.7 759.438 1269.7C758.974 1269.7 758.534 1269.82 758.118 1270.04C757.718 1270.25 757.366 1270.55 757.062 1270.95C756.758 1271.34 756.518 1271.8 756.342 1272.34C756.166 1272.89 756.078 1273.5 756.078 1274.17C756.078 1275.58 756.358 1276.67 756.918 1277.46C757.478 1278.24 758.27 1278.63 759.294 1278.63Z" fill="black" fill-opacity="0.7"/>
<path d="M772.727 1280.29C772.007 1280.29 771.319 1280.15 770.663 1279.88C770.023 1279.61 769.455 1279.22 768.959 1278.7C768.463 1278.18 768.063 1277.54 767.759 1276.78C767.471 1276.02 767.327 1275.15 767.327 1274.19C767.327 1273.22 767.471 1272.35 767.759 1271.6C768.063 1270.83 768.463 1270.18 768.959 1269.66C769.455 1269.13 770.023 1268.73 770.663 1268.46C771.319 1268.18 772.007 1268.05 772.727 1268.05C773.447 1268.05 774.127 1268.18 774.767 1268.46C775.423 1268.73 775.999 1269.13 776.495 1269.66C776.991 1270.18 777.383 1270.83 777.671 1271.6C777.975 1272.35 778.127 1273.22 778.127 1274.19C778.127 1275.15 777.975 1276.02 777.671 1276.78C777.383 1277.54 776.991 1278.18 776.495 1278.7C775.999 1279.22 775.423 1279.61 774.767 1279.88C774.127 1280.15 773.447 1280.29 772.727 1280.29ZM772.727 1278.66C773.223 1278.66 773.679 1278.55 774.095 1278.34C774.511 1278.12 774.863 1277.82 775.151 1277.43C775.455 1277.03 775.687 1276.56 775.847 1276.02C776.007 1275.47 776.087 1274.86 776.087 1274.19C776.087 1273.52 776.007 1272.91 775.847 1272.37C775.687 1271.81 775.455 1271.33 775.151 1270.93C774.863 1270.53 774.511 1270.22 774.095 1270.02C773.679 1269.79 773.223 1269.68 772.727 1269.68C772.231 1269.68 771.775 1269.79 771.359 1270.02C770.943 1270.22 770.583 1270.53 770.279 1270.93C769.991 1271.33 769.767 1271.81 769.607 1272.37C769.447 1272.91 769.367 1273.52 769.367 1274.19C769.367 1274.86 769.447 1275.47 769.607 1276.02C769.767 1276.56 769.991 1277.03 770.279 1277.43C770.583 1277.82 770.943 1278.12 771.359 1278.34C771.775 1278.55 772.231 1278.66 772.727 1278.66Z" fill="black" fill-opacity="0.7"/>
<path d="M790.731 1280.29C789.947 1280.29 789.211 1280.15 788.523 1279.88C787.851 1279.59 787.259 1279.19 786.747 1278.68C786.251 1278.15 785.859 1277.51 785.571 1276.76C785.283 1276.01 785.139 1275.15 785.139 1274.19C785.139 1273.23 785.283 1272.38 785.571 1271.62C785.875 1270.86 786.267 1270.21 786.747 1269.68C787.243 1269.15 787.803 1268.75 788.427 1268.48C789.051 1268.19 789.699 1268.05 790.371 1268.05C791.107 1268.05 791.763 1268.18 792.339 1268.43C792.931 1268.69 793.419 1269.06 793.803 1269.54C794.203 1270.02 794.507 1270.59 794.715 1271.26C794.923 1271.94 795.027 1272.69 795.027 1273.52C795.027 1273.73 795.019 1273.94 795.003 1274.14C795.003 1274.34 794.987 1274.5 794.955 1274.65H787.083C787.163 1275.9 787.547 1276.89 788.235 1277.62C788.939 1278.34 789.851 1278.7 790.971 1278.7C791.531 1278.7 792.043 1278.62 792.507 1278.46C792.987 1278.29 793.443 1278.06 793.875 1277.79L794.571 1279.09C794.059 1279.41 793.491 1279.69 792.867 1279.93C792.243 1280.17 791.531 1280.29 790.731 1280.29ZM787.059 1273.23H793.299C793.299 1272.05 793.043 1271.15 792.531 1270.54C792.035 1269.92 791.331 1269.61 790.419 1269.61C790.003 1269.61 789.603 1269.69 789.219 1269.85C788.851 1270.01 788.515 1270.25 788.211 1270.57C787.907 1270.87 787.651 1271.25 787.443 1271.7C787.251 1272.14 787.123 1272.66 787.059 1273.23Z" fill="black" fill-opacity="0.7"/>
<path d="M797.909 1280V1268.34H799.877V1280H797.909ZM798.917 1265.94C798.533 1265.94 798.205 1265.82 797.933 1265.58C797.677 1265.34 797.549 1265.03 797.549 1264.66C797.549 1264.28 797.677 1263.98 797.933 1263.75C798.205 1263.51 798.533 1263.39 798.917 1263.39C799.301 1263.39 799.621 1263.51 799.877 1263.75C800.149 1263.98 800.285 1264.28 800.285 1264.66C800.285 1265.03 800.149 1265.34 799.877 1265.58C799.621 1265.82 799.301 1265.94 798.917 1265.94Z" fill="black" fill-opacity="0.7"/>
<path d="M807.224 1280.29C805.976 1280.29 805.064 1279.9 804.488 1279.14C803.928 1278.37 803.648 1277.23 803.648 1275.73V1268.34H805.64V1275.46C805.64 1276.57 805.808 1277.37 806.144 1277.86C806.496 1278.34 807.056 1278.58 807.824 1278.58C808.432 1278.58 808.968 1278.43 809.432 1278.13C809.896 1277.81 810.408 1277.3 810.968 1276.62V1268.34H812.936V1280H811.304L811.136 1278.18H811.064C810.52 1278.82 809.944 1279.33 809.336 1279.71C808.744 1280.1 808.04 1280.29 807.224 1280.29Z" fill="black" fill-opacity="0.7"/>
<path d="M819.918 1280.29C819.086 1280.29 818.294 1280.14 817.542 1279.83C816.79 1279.53 816.134 1279.14 815.574 1278.68L816.558 1277.36C817.07 1277.78 817.59 1278.11 818.118 1278.37C818.662 1278.62 819.286 1278.75 819.99 1278.75C820.758 1278.75 821.334 1278.58 821.718 1278.22C822.102 1277.87 822.294 1277.44 822.294 1276.93C822.294 1276.62 822.214 1276.36 822.054 1276.14C821.894 1275.91 821.686 1275.72 821.43 1275.56C821.19 1275.38 820.91 1275.23 820.59 1275.1C820.27 1274.98 819.95 1274.85 819.63 1274.72C819.214 1274.58 818.798 1274.42 818.382 1274.24C817.966 1274.05 817.59 1273.82 817.254 1273.57C816.934 1273.3 816.67 1272.98 816.462 1272.63C816.254 1272.28 816.15 1271.86 816.15 1271.36C816.15 1270.9 816.238 1270.46 816.414 1270.06C816.606 1269.65 816.87 1269.3 817.206 1269.01C817.558 1268.7 817.982 1268.47 818.478 1268.31C818.974 1268.14 819.534 1268.05 820.158 1268.05C820.894 1268.05 821.566 1268.18 822.174 1268.43C822.798 1268.69 823.334 1269 823.782 1269.37L822.846 1270.62C822.446 1270.31 822.03 1270.06 821.598 1269.87C821.166 1269.68 820.694 1269.58 820.182 1269.58C819.446 1269.58 818.902 1269.75 818.55 1270.09C818.214 1270.42 818.046 1270.82 818.046 1271.26C818.046 1271.54 818.118 1271.78 818.262 1271.98C818.406 1272.18 818.598 1272.35 818.838 1272.51C819.078 1272.66 819.35 1272.79 819.654 1272.92C819.974 1273.03 820.302 1273.15 820.638 1273.28C821.054 1273.44 821.47 1273.61 821.886 1273.78C822.318 1273.96 822.702 1274.18 823.038 1274.46C823.374 1274.71 823.646 1275.03 823.854 1275.42C824.078 1275.8 824.19 1276.26 824.19 1276.81C824.19 1277.29 824.094 1277.74 823.902 1278.15C823.726 1278.57 823.454 1278.94 823.086 1279.26C822.734 1279.58 822.286 1279.82 821.742 1280C821.214 1280.19 820.606 1280.29 819.918 1280.29Z" fill="black" fill-opacity="0.7"/>
<path d="M826.925 1280V1268.34H828.557L828.725 1270.02H828.797C829.309 1269.46 829.861 1268.99 830.453 1268.62C831.061 1268.24 831.717 1268.05 832.421 1268.05C833.317 1268.05 834.013 1268.25 834.509 1268.65C835.021 1269.03 835.397 1269.58 835.637 1270.28C836.245 1269.61 836.853 1269.07 837.461 1268.67C838.085 1268.26 838.757 1268.05 839.477 1268.05C840.677 1268.05 841.565 1268.43 842.141 1269.2C842.733 1269.97 843.029 1271.1 843.029 1272.61V1280H841.061V1272.87C841.061 1271.77 840.885 1270.98 840.533 1270.5C840.181 1270 839.637 1269.75 838.901 1269.75C838.021 1269.75 837.045 1270.35 835.973 1271.55V1280H834.005V1272.87C834.005 1271.77 833.829 1270.98 833.477 1270.5C833.125 1270 832.573 1269.75 831.821 1269.75C830.941 1269.75 829.965 1270.35 828.893 1271.55V1280H826.925Z" fill="black" fill-opacity="0.7"/>
<path d="M851.359 1280.29C850.639 1280.29 849.951 1280.15 849.295 1279.88C848.655 1279.61 848.087 1279.22 847.591 1278.7C847.095 1278.18 846.695 1277.54 846.391 1276.78C846.103 1276.02 845.959 1275.15 845.959 1274.19C845.959 1273.22 846.103 1272.35 846.391 1271.6C846.695 1270.83 847.095 1270.18 847.591 1269.66C848.087 1269.13 848.655 1268.73 849.295 1268.46C849.951 1268.18 850.639 1268.05 851.359 1268.05C852.079 1268.05 852.759 1268.18 853.399 1268.46C854.055 1268.73 854.631 1269.13 855.127 1269.66C855.623 1270.18 856.015 1270.83 856.303 1271.6C856.607 1272.35 856.759 1273.22 856.759 1274.19C856.759 1275.15 856.607 1276.02 856.303 1276.78C856.015 1277.54 855.623 1278.18 855.127 1278.7C854.631 1279.22 854.055 1279.61 853.399 1279.88C852.759 1280.15 852.079 1280.29 851.359 1280.29ZM851.359 1278.66C851.855 1278.66 852.311 1278.55 852.727 1278.34C853.143 1278.12 853.495 1277.82 853.783 1277.43C854.087 1277.03 854.319 1276.56 854.479 1276.02C854.639 1275.47 854.719 1274.86 854.719 1274.19C854.719 1273.52 854.639 1272.91 854.479 1272.37C854.319 1271.81 854.087 1271.33 853.783 1270.93C853.495 1270.53 853.143 1270.22 852.727 1270.02C852.311 1269.79 851.855 1269.68 851.359 1269.68C850.863 1269.68 850.407 1269.79 849.991 1270.02C849.575 1270.22 849.215 1270.53 848.911 1270.93C848.623 1271.33 848.399 1271.81 848.239 1272.37C848.079 1272.91 847.999 1273.52 847.999 1274.19C847.999 1274.86 848.079 1275.47 848.239 1276.02C848.399 1276.56 848.623 1277.03 848.911 1277.43C849.215 1277.82 849.575 1278.12 849.991 1278.34C850.407 1278.55 850.863 1278.66 851.359 1278.66Z" fill="black" fill-opacity="0.7"/>
<path d="M863.815 1280.29C862.343 1280.29 861.167 1279.76 860.287 1278.7C859.423 1277.65 858.991 1276.14 858.991 1274.19C858.991 1273.25 859.127 1272.4 859.399 1271.65C859.687 1270.88 860.063 1270.23 860.527 1269.7C860.991 1269.18 861.527 1268.77 862.135 1268.48C862.743 1268.19 863.383 1268.05 864.055 1268.05C864.727 1268.05 865.311 1268.17 865.807 1268.41C866.303 1268.65 866.807 1268.98 867.319 1269.39L867.223 1267.4V1262.91H869.215V1280H867.583L867.415 1278.63H867.343C866.879 1279.08 866.343 1279.47 865.735 1279.81C865.143 1280.13 864.503 1280.29 863.815 1280.29ZM864.247 1278.63C864.791 1278.63 865.303 1278.5 865.783 1278.25C866.263 1277.98 866.743 1277.57 867.223 1277.02V1270.93C866.727 1270.48 866.247 1270.17 865.783 1269.99C865.335 1269.8 864.871 1269.7 864.391 1269.7C863.927 1269.7 863.487 1269.82 863.071 1270.04C862.671 1270.25 862.319 1270.55 862.015 1270.95C861.711 1271.34 861.471 1271.8 861.295 1272.34C861.119 1272.89 861.031 1273.5 861.031 1274.17C861.031 1275.58 861.311 1276.67 861.871 1277.46C862.431 1278.24 863.223 1278.63 864.247 1278.63Z" fill="black" fill-opacity="0.7"/>
<path d="M874.176 1280.29C873.776 1280.29 873.432 1280.15 873.144 1279.88C872.872 1279.59 872.736 1279.23 872.736 1278.8C872.736 1278.34 872.872 1277.97 873.144 1277.7C873.432 1277.41 873.776 1277.26 874.176 1277.26C874.56 1277.26 874.888 1277.41 875.16 1277.7C875.448 1277.97 875.592 1278.34 875.592 1278.8C875.592 1279.23 875.448 1279.59 875.16 1279.88C874.888 1280.15 874.56 1280.29 874.176 1280.29Z" fill="black" fill-opacity="0.7"/>
<path fill-rule="evenodd" clip-rule="evenodd" d="M746.966 1017.02C746.679 1010.92 744.627 1005.04 741.06 1000.09C737.492 995.136 732.562 991.327 726.869 989.124C721.176 986.921 714.966 986.419 708.993 987.68C703.021 988.941 697.544 991.91 693.227 996.227C688.911 1000.54 685.942 1006.02 684.68 1011.99C683.419 1017.96 683.92 1024.18 686.123 1029.87C688.326 1035.56 692.135 1040.49 697.088 1044.06C702.041 1047.63 707.924 1049.68 714.021 1049.97C718.399 1050.16 722.768 1049.44 726.853 1047.85C730.937 1046.26 734.646 1043.84 737.745 1040.75C740.843 1037.65 743.263 1033.94 744.851 1029.85C746.438 1025.77 747.159 1021.4 746.966 1017.02ZM696.655 1012.97C696.424 1012.82 696.251 1012.59 696.163 1012.32C696.075 1012.06 696.076 1011.77 696.167 1011.51C697.424 1008.03 699.601 1004.95 702.466 1002.6C705.332 1000.25 708.779 998.721 712.442 998.172C716.106 997.624 719.85 998.076 723.277 999.482C726.704 1000.89 729.687 1003.2 731.91 1006.16C733.41 1008.16 731.377 1010.22 728.532 1012.36C725.812 1014.4 723.109 1016.07 723.109 1016.07C722.301 1016.49 721.394 1016.68 720.486 1016.61C719.579 1016.55 718.706 1016.24 717.965 1015.71L713.623 1012.62C712.881 1012.1 712.009 1011.79 711.102 1011.72C710.194 1011.66 709.287 1011.85 708.48 1012.27L703.75 1014.72C702.942 1015.14 702.035 1015.33 701.128 1015.26C700.221 1015.2 699.349 1014.89 698.608 1014.36L696.663 1012.98L696.655 1012.97ZM734.834 1025.49C733.576 1028.97 731.399 1032.05 728.534 1034.4C725.669 1036.75 722.222 1038.28 718.558 1038.83C714.894 1039.38 711.15 1038.92 707.723 1037.52C704.295 1036.11 701.312 1033.81 699.089 1030.84C697.589 1028.84 699.623 1026.78 702.467 1024.64C705.187 1022.59 707.891 1020.93 707.891 1020.93C708.699 1020.51 709.606 1020.32 710.513 1020.39C711.421 1020.45 712.293 1020.76 713.034 1021.29L717.377 1024.37C718.119 1024.9 718.991 1025.21 719.898 1025.28C720.805 1025.34 721.712 1025.15 722.52 1024.73L727.251 1022.28C728.058 1021.87 728.965 1021.68 729.872 1021.74C730.779 1021.8 731.652 1022.12 732.393 1022.64L734.336 1024.02C734.339 1024.03 734.342 1024.03 734.346 1024.03C734.577 1024.19 734.75 1024.41 734.838 1024.68C734.926 1024.94 734.925 1025.23 734.834 1025.49V1025.49Z" fill="#55C2D8"/>
<g filter="url(#filter0_d_0_1)">
<line y1="-0.5" x2="50.6597" y2="-0.5" transform="matrix(-0.282917 0.959144 -0.843238 -0.53754 777.768 424.09)" stroke="white"/>
<line y1="-0.5" x2="31.498" y2="-0.5" transform="matrix(-0.965775 0.259381 -0.123325 -0.992366 776.305 418.07)" stroke="white"/>
<line y1="-0.5" x2="41.6733" y2="-0.5" transform="matrix(0.645738 -0.763559 0.479994 0.877272 781.277 414.63)" stroke="white"/>
<line y1="-0.5" x2="32.6936" y2="-0.5" transform="matrix(-0.447336 -0.894366 0.679088 -0.734057 778.645 414.2)" stroke="white"/>
<line y1="-0.5" x2="34.9424" y2="-0.5" transform="matrix(0.962655 0.270731 -0.129043 0.991639 743.545 406.89)" stroke="white"/>
<line y1="-0.5" x2="18.2574" y2="-0.5" transform="matrix(0.977276 0.211969 -0.0998605 0.995001 780.693 417.21)" stroke="white"/>
<line y1="-0.5" x2="35.9687" y2="-0.5" transform="matrix(-0.731887 0.681426 -0.395658 -0.918398 860.545 382.38)" stroke="white"/>
<line y1="-0.5" x2="37.658" y2="-0.5" transform="matrix(0.240786 -0.970578 0.881321 0.472519 864.64 376.36)" stroke="white"/>
<line y1="-0.5" x2="12.6481" y2="-0.5" transform="matrix(0.578149 0.815931 -0.546767 0.837285 866.395 382.81)" stroke="white"/>
<g filter="url(#filter1_d_0_1)">
<ellipse cx="811.377" cy="548.79" rx="6.11498" ry="6.45" fill="white"/>
</g>
<g filter="url(#filter2_d_0_1)">
<ellipse cx="863.177" cy="379.8" rx="4.3875" ry="6.45" fill="white"/>
</g>
<g filter="url(#filter3_d_0_1)">
<ellipse cx="779.23" cy="418.93" rx="4.3875" ry="6.45" fill="white"/>
</g>
<line y1="-0.5" x2="81.6172" y2="-0.5" transform="matrix(-0.422889 0.906182 -0.704091 -0.710109 807.31 552.66)" stroke="white"/>
<line y1="-0.5" x2="67.2233" y2="-0.5" transform="matrix(0.0652675 0.997868 -0.990157 0.139963 809.65 553.52)" stroke="white"/>
<line y1="-0.5" x2="46.7252" y2="-0.5" transform="matrix(0.45072 0.892665 -0.675628 0.737243 810.82 550.08)" stroke="white"/>
</g>
<g clip-path="url(#clip0_0_1)" filter="url(#filter4_d_0_1)">
<rect width="390" height="844" transform="translate(1353 111)" fill="#723E3E" fill-opacity="0.5"/>
</g>
<defs>
<filter id="filter0_d_0_1" x="739.545" y="339.337" width="138.709" height="295.993" filterUnits="userSpaceOnUse" color-interpolation-filters="sRGB">
<feFlood flood-opacity="0" result="BackgroundImageFix"/>
<feColorMatrix in="SourceAlpha" type="matrix" values="0 0 0 0 0 0 0 0 0 0 0 0 0 0 0 0 0 0 127 0" result="hardAlpha"/>
<feOffset dy="4"/>
<feGaussianBlur stdDeviation="2"/>
<feComposite in2="hardAlpha" operator="out"/>
<feColorMatrix type="matrix" values="0 0 0 0 0 0 0 0 0 0 0 0 0 0 0 0 0 0 0.25 0"/>
<feBlend mode="normal" in2="BackgroundImageFix" result="effect1_dropShadow_0_1"/>
<feBlend mode="normal" in="SourceGraphic" in2="effect1_dropShadow_0_1" result="shape"/>
</filter>
<filter id="filter1_d_0_1" x="795.262" y="532.34" width="32.23" height="32.8999" filterUnits="userSpaceOnUse" color-interpolation-filters="sRGB">
<feFlood flood-opacity="0" result="BackgroundImageFix"/>
<feColorMatrix in="SourceAlpha" type="matrix" values="0 0 0 0 0 0 0 0 0 0 0 0 0 0 0 0 0 0 127 0" result="hardAlpha"/>
<feMorphology radius="5" operator="dilate" in="SourceAlpha" result="effect1_dropShadow_0_1"/>
<feOffset/>
<feGaussianBlur stdDeviation="2.5"/>
<feColorMatrix type="matrix" values="0 0 0 0 1 0 0 0 0 1 0 0 0 0 1 0 0 0 0.76 0"/>
<feBlend mode="normal" in2="BackgroundImageFix" result="effect1_dropShadow_0_1"/>
<feBlend mode="normal" in="SourceGraphic" in2="effect1_dropShadow_0_1" result="shape"/>
</filter>
<filter id="filter2_d_0_1" x="848.79" y="363.35" width="28.775" height="32.8999" filterUnits="userSpaceOnUse" color-interpolation-filters="sRGB">
<feFlood flood-opacity="0" result="BackgroundImageFix"/>
<feColorMatrix in="SourceAlpha" type="matrix" values="0 0 0 0 0 0 0 0 0 0 0 0 0 0 0 0 0 0 127 0" result="hardAlpha"/>
<feMorphology radius="5" operator="dilate" in="SourceAlpha" result="effect1_dropShadow_0_1"/>
<feOffset/>
<feGaussianBlur stdDeviation="2.5"/>
<feColorMatrix type="matrix" values="0 0 0 0 1 0 0 0 0 1 0 0 0 0 1 0 0 0 0.76 0"/>
<feBlend mode="normal" in2="BackgroundImageFix" result="effect1_dropShadow_0_1"/>
<feBlend mode="normal" in="SourceGraphic" in2="effect1_dropShadow_0_1" result="shape"/>
</filter>
<filter id="filter3_d_0_1" x="764.842" y="402.48" width="28.775" height="32.8999" filterUnits="userSpaceOnUse" color-interpolation-filters="sRGB">
<feFlood flood-opacity="0" result="BackgroundImageFix"/>
<feColorMatrix in="SourceAlpha" type="matrix" values="0 0 0 0 0 0 0 0 0 0 0 0 0 0 0 0 0 0 127 0" result="hardAlpha"/>
<feMorphology radius="5" operator="dilate" in="SourceAlpha" result="effect1_dropShadow_0_1"/>
<feOffset/>
<feGaussianBlur stdDeviation="2.5"/>
<feColorMatrix type="matrix" values="0 0 0 0 1 0 0 0 0 1 0 0 0 0 1 0 0 0 0.76 0"/>
<feBlend mode="normal" in2="BackgroundImageFix" result="effect1_dropShadow_0_1"/>
<feBlend mode="normal" in="SourceGraphic" in2="effect1_dropShadow_0_1" result="shape"/>
</filter>
<filter id="filter4_d_0_1" x="1349" y="111" width="398" height="852" filterUnits="userSpaceOnUse" color-interpolation-filters="sRGB">
<feFlood flood-opacity="0" result="BackgroundImageFix"/>
<feColorMatrix in="SourceAlpha" type="matrix" values="0 0 0 0 0 0 0 0 0 0 0 0 0 0 0 0 0 0 127 0" result="hardAlpha"/>
<feOffset dy="4"/>
<feGaussianBlur stdDeviation="2"/>
<feComposite in2="hardAlpha" operator="out"/>
<feColorMatrix type="matrix" values="0 0 0 0 0 0 0 0 0 0 0 0 0 0 0 0 0 0 0.25 0"/>
<feBlend mode="normal" in2="BackgroundImageFix" result="effect1_dropShadow_0_1"/>
<feBlend mode="normal" in="SourceGraphic" in2="effect1_dropShadow_0_1" result="shape"/>
</filter>
<clipPath id="clip0_0_1">
<rect width="390" height="844" fill="white" transform="translate(1353 111)"/>
</clipPath>
</defs>
</svg>
